192.168.1.57 - - [25/May/2017:10:01:31 +0300] "GET /version HTTP/1.1" 200 123
192.168.1.57 - - [25/May/2017:10:02:21 +0300] "GET /version HTTP/1.1" 200 123
192.168.1.57 - - [25/May/2017:10:02:22 +0300] "GET /version HTTP/1.1" 200 123
192.168.1.57 - - [25/May/2017:10:02:53 +0300] "GET /version HTTP/1.1" 200 123
192.168.1.57 - - [25/May/2017:10:03:09 +0300] "GET /version HTTP/1.1" 200 123
192.168.1.57 - - [25/May/2017:10:03:20 +0300] "GET /version HTTP/1.1" 200 123
192.168.1.57 - - [25/May/2017:10:05:51 +0300] "GET /version HTTP/1.1" 200 123
192.168.1.57 - - [25/May/2017:10:05:52 +0300] "GET /version HTTP/1.1" 200 123
192.168.1.57 - - [25/May/2017:10:06:04 +0300] "GET /version HTTP/1.1" 200 123
192.168.1.57 - - [25/May/2017:10:06:36 +0300] "GET /version HTTP/1.1" 200 123
192.168.1.57 - - [25/May/2017:10:06:37 +0300] "GET /version HTTP/1.1" 200 123
192.168.1.57 - - [25/May/2017:10:06:38 +0300] "GET /version HTTP/1.1" 200 123
192.168.1.57 - - [25/May/2017:10:06:38 +0300] "GET /version HTTP/1.1" 200 123
192.168.1.57 - - [25/May/2017:10:06:38 +0300] "GET /version HTTP/1.1" 200 123
192.168.1.57 - - [25/May/2017:10:06:39 +0300] "GET /version HTTP/1.1" 200 123
192.168.1.57 - - [25/May/2017:10:06:39 +0300] "GET /version HTTP/1.1" 200 123
192.168.1.57 - - [25/May/2017:10:06:39 +0300] "GET /version HTTP/1.1" 200 123
192.168.1.57 - - [25/May/2017:10:06:42 +0300] "GET /version HTTP/1.1" 200 123
192.168.1.57 - - [25/May/2017:10:06:43 +0300] "GET /version HTTP/1.1" 200 123
192.168.1.57 - - [25/May/2017:10:06:43 +0300] "GET /version HTTP/1.1" 200 123
192.168.1.57 - - [25/May/2017:10:06:44 +0300] "GET /version HTTP/1.1" 200 123
