192.168.1.57 - - [16/Jun/2017:14:02:29 +0300] "GET /config.json?v=392 HTTP/1.1" 200 8156
192.168.1.57 - - [16/Jun/2017:14:02:29 +0300] "GET /config.json?v=393 HTTP/1.1" 200 8156
192.168.1.57 - - [16/Jun/2017:14:02:29 +0300] "GET /config.json?v=394 HTTP/1.1" 200 8156
192.168.1.57 - - [16/Jun/2017:14:02:31 +0300] "GET /views/globalparameters.html?v=1.0.52 HTTP/1.1" 200 3072
192.168.1.57 - - [16/Jun/2017:14:02:31 +0300] "GET /images/parametre.png HTTP/1.1" 200 54021
192.168.1.57 - - [16/Jun/2017:14:02:31 +0300] "GET /views/explorer.html?v=1.0.52 HTTP/1.1" 304 -
192.168.1.57 - - [16/Jun/2017:14:02:32 +0300] "GET /images/jobicon.png HTTP/1.1" 304 -
192.168.1.57 - - [16/Jun/2017:14:02:32 +0300] "GET /images/folder.png HTTP/1.1" 304 -
192.168.1.57 - - [16/Jun/2017:14:02:42 +0300] "GET /images/rule.png HTTP/1.1" 200 53352
192.168.1.57 - - [16/Jun/2017:14:02:48 +0300] "GET /views/connections.html?v=1.0.52 HTTP/1.1" 200 3808
192.168.1.57 - - [16/Jun/2017:14:02:48 +0300] "GET /images/connection.png?v=1.0.21 HTTP/1.1" 200 51069
192.168.1.57 - - [16/Jun/2017:14:02:49 +0300] "GET /views/monitoring.html?v=1.0.52 HTTP/1.1" 304 -
192.168.1.57 - - [16/Jun/2017:14:02:49 +0300] "GET /images/icon_livemonitor.png HTTP/1.1" 304 -
192.168.1.57 - - [16/Jun/2017:14:02:57 +0300] "GET /views/newrule.html?v=1.0.52 HTTP/1.1" 200 17485
192.168.1.57 - - [16/Jun/2017:14:02:57 +0300] "GET /images/icon_select.png HTTP/1.1" 200 54907
192.168.1.57 - - [16/Jun/2017:14:02:57 +0300] "GET /images/icon_hand.png HTTP/1.1" 200 54902
192.168.1.57 - - [16/Jun/2017:14:02:57 +0300] "GET /images/icon_start.png HTTP/1.1" 200 52284
192.168.1.57 - - [16/Jun/2017:14:02:57 +0300] "GET /images/icon_end.png HTTP/1.1" 200 52506
192.168.1.57 - - [16/Jun/2017:14:02:57 +0300] "GET /images/icon_decision.png HTTP/1.1" 200 50866
192.168.1.57 - - [16/Jun/2017:14:02:57 +0300] "GET /images/icon_job.png HTTP/1.1" 200 49318
192.168.1.57 - - [16/Jun/2017:14:02:57 +0300] "GET /images/icon_resetview.png HTTP/1.1" 200 54703
192.168.1.57 - - [16/Jun/2017:14:02:57 +0300] "GET /images/icon_comment.png HTTP/1.1" 200 54564
192.168.1.57 - - [16/Jun/2017:14:02:57 +0300] "GET /images/icon_zoomin.png HTTP/1.1" 200 53649
192.168.1.57 - - [16/Jun/2017:14:02:57 +0300] "GET /images/icon_rule.png HTTP/1.1" 200 49291
192.168.1.57 - - [16/Jun/2017:14:02:57 +0300] "GET /images/icon_zoomout.png HTTP/1.1" 200 53212
192.168.1.57 - - [16/Jun/2017:14:02:57 +0300] "GET /images/icon_fullscreen.png HTTP/1.1" 200 51698
192.168.1.57 - - [16/Jun/2017:14:03:04 +0300] "GET /images/icon_gear.png HTTP/1.1" 200 53940
192.168.1.57 - - [16/Jun/2017:14:03:04 +0300] "GET /images/icon_delete.png HTTP/1.1" 200 53010
192.168.1.176 - - [16/Jun/2017:15:05:45 +0300] "GET /views/connections.html?v=1.0.52 HTTP/1.1" 200 3808
192.168.1.176 - - [16/Jun/2017:15:05:45 +0300] "GET /images/connection.png?v=1.0.21 HTTP/1.1" 200 51069
192.168.1.176 - - [16/Jun/2017:15:05:46 +0300] "GET /views/newconnection.html?v=1.0.52 HTTP/1.1" 200 4670
192.168.1.57 - - [16/Jun/2017:16:01:44 +0300] "GET /images/icon_end.png HTTP/1.1" 200 52506
192.168.1.57 - - [16/Jun/2017:16:01:44 +0300] "GET /images/icon_job.png HTTP/1.1" 200 49318
192.168.1.57 - - [16/Jun/2017:16:01:44 +0300] "GET /images/icon_gear.png HTTP/1.1" 200 53940
192.168.1.57 - - [16/Jun/2017:16:01:44 +0300] "GET /images/icon_decision.png HTTP/1.1" 200 50866
192.168.1.57 - - [16/Jun/2017:16:01:44 +0300] "GET /images/icon_rule.png HTTP/1.1" 200 49291
192.168.1.57 - - [16/Jun/2017:16:01:44 +0300] "GET /images/icon_delete.png HTTP/1.1" 200 53010
