192.168.1.176 - - [09/Jun/2017:09:00:19 +0300] "GET /config.json?v=793 HTTP/1.1" 200 8156
192.168.1.176 - - [09/Jun/2017:09:00:26 +0300] "GET /config.json?v=539 HTTP/1.1" 200 8156
192.168.1.176 - - [09/Jun/2017:09:00:26 +0300] "GET /config.json?v=547 HTTP/1.1" 200 8156
192.168.1.176 - - [09/Jun/2017:09:00:26 +0300] "GET /views/explorer.html?v=1.0.51 HTTP/1.1" 200 14631
192.168.1.176 - - [09/Jun/2017:09:00:26 +0300] "GET /fonts/lato/Lato-Regular.ttf HTTP/1.1" 200 120196
192.168.1.176 - - [09/Jun/2017:09:00:26 +0300] "GET /images/user.png?v=1.0.22 HTTP/1.1" 200 52225
192.168.1.176 - - [09/Jun/2017:09:00:26 +0300] "GET /fonts/fontawesome-webfont.woff2?v=4.4.0 HTTP/1.1" 200 64464
192.168.1.176 - - [09/Jun/2017:09:00:27 +0300] "GET /images/folder.png HTTP/1.1" 200 51794
192.168.1.57 - - [09/Jun/2017:10:19:45 +0300] "GET / HTTP/1.1" 200 17401
192.168.1.57 - - [09/Jun/2017:10:19:45 +0300] "GET /styles/bootstrap.css HTTP/1.1" 200 146082
192.168.1.57 - - [09/Jun/2017:10:19:45 +0300] "GET /styles/datetimepicker.css HTTP/1.1" 200 11941
192.168.1.57 - - [09/Jun/2017:10:19:45 +0300] "GET /styles/font-awesome.css HTTP/1.1" 200 32318
192.168.1.57 - - [09/Jun/2017:10:19:45 +0300] "GET /styles/lena.material.css HTTP/1.1" 200 86923
192.168.1.57 - - [09/Jun/2017:10:19:45 +0300] "GET /styles/lena.common.css HTTP/1.1" 200 265637
192.168.1.57 - - [09/Jun/2017:10:19:45 +0300] "GET /styles/styles.css?v=1.0.51 HTTP/1.1" 200 56062
192.168.1.57 - - [09/Jun/2017:10:19:45 +0300] "GET /styles/sqlcolor.css HTTP/1.1" 200 916
192.168.1.57 - - [09/Jun/2017:10:19:46 +0300] "GET /scripts/components/jquery-2.2.0.js HTTP/1.1" 200 258388
192.168.1.57 - - [09/Jun/2017:10:19:46 +0300] "GET /scripts/components/bootstrap.js HTTP/1.1" 200 68954
192.168.1.57 - - [09/Jun/2017:10:19:46 +0300] "GET /scripts/components/lenaDiagram.js HTTP/1.1" 200 2707829
192.168.1.57 - - [09/Jun/2017:10:19:46 +0300] "GET /scripts/components/highlight.pack.js HTTP/1.1" 200 19511
192.168.1.57 - - [09/Jun/2017:10:19:46 +0300] "GET /scripts/components/jquery-ui.js HTTP/1.1" 200 470596
192.168.1.57 - - [09/Jun/2017:10:19:46 +0300] "GET /scripts/scripts.js?v=1.0.51 HTTP/1.1" 200 14332
192.168.1.57 - - [09/Jun/2017:10:19:46 +0300] "GET /fonts/lato/Lato-Bold.ttf HTTP/1.1" 200 121788
192.168.1.57 - - [09/Jun/2017:10:19:46 +0300] "GET /scripts/components/moment.min.js HTTP/1.1" 200 46645
192.168.1.57 - - [09/Jun/2017:10:19:46 +0300] "GET /scripts/components/angular.js HTTP/1.1" 200 1070726
192.168.1.57 - - [09/Jun/2017:10:19:46 +0300] "GET /scripts/components/angular-route.js HTTP/1.1" 200 35877
192.168.1.57 - - [09/Jun/2017:10:19:46 +0300] "GET /scripts/components/angular-cookies.js HTTP/1.1" 200 9729
192.168.1.57 - - [09/Jun/2017:10:19:46 +0300] "GET /scripts/components/angular-sanitize.js HTTP/1.1" 200 24546
192.168.1.57 - - [09/Jun/2017:10:19:46 +0300] "GET /scripts/components/ngtimeago.js HTTP/1.1" 200 3410
192.168.1.57 - - [09/Jun/2017:10:19:46 +0300] "GET /scripts/components/dateTimeInput.js HTTP/1.1" 200 6012
192.168.1.57 - - [09/Jun/2017:10:19:46 +0300] "GET /scripts/components/bootstrap-datetimepicker.js HTTP/1.1" 200 100882
192.168.1.57 - - [09/Jun/2017:10:19:46 +0300] "GET /scripts/components/angucomplete-alt.min.js HTTP/1.1" 200 11106
192.168.1.57 - - [09/Jun/2017:10:19:46 +0300] "GET /scripts/components/ng-contextmenu.min.js HTTP/1.1" 200 2121
192.168.1.57 - - [09/Jun/2017:10:19:46 +0300] "GET /scripts/app.js?v=1.0.51 HTTP/1.1" 200 7162
192.168.1.57 - - [09/Jun/2017:10:19:46 +0300] "GET /scripts/services/dataService.js?v=1.0.51 HTTP/1.1" 200 52121
192.168.1.57 - - [09/Jun/2017:10:19:46 +0300] "GET /scripts/services/bussinessService.js?v=1.0.51 HTTP/1.1" 200 8121
192.168.1.57 - - [09/Jun/2017:10:19:46 +0300] "GET /scripts/controllers/controllers.js?v=1.0.51 HTTP/1.1" 200 199242
192.168.1.57 - - [09/Jun/2017:10:19:46 +0300] "GET /images/icc_logo_50.png HTTP/1.1" 200 59970
192.168.1.57 - - [09/Jun/2017:10:19:46 +0300] "GET /images/icc_top_background.png HTTP/1.1" 200 62468
192.168.1.57 - - [09/Jun/2017:10:19:48 +0300] "GET /views/explorer.html?v=1.0.51 HTTP/1.1" 200 14631
192.168.1.57 - - [09/Jun/2017:10:19:48 +0300] "GET /views/login.html?v=1.0.51 HTTP/1.1" 200 3311
192.168.1.57 - - [09/Jun/2017:10:19:48 +0300] "GET /fonts/fontawesome-webfont.woff2?v=4.4.0 HTTP/1.1" 200 64464
192.168.1.57 - - [09/Jun/2017:10:19:49 +0300] "GET /config.json?v=318 HTTP/1.1" 200 8156
192.168.1.57 - - [09/Jun/2017:10:19:50 +0300] "GET /config.json?v=650 HTTP/1.1" 200 8156
192.168.1.57 - - [09/Jun/2017:10:19:50 +0300] "GET /config.json?v=659 HTTP/1.1" 200 8156
192.168.1.57 - - [09/Jun/2017:10:19:50 +0300] "GET /config.json?v=660 HTTP/1.1" 200 8156
192.168.1.57 - - [09/Jun/2017:10:19:51 +0300] "GET /fonts/lato/Lato-Regular.ttf HTTP/1.1" 200 120196
192.168.1.57 - - [09/Jun/2017:10:19:51 +0300] "GET /images/user.png?v=1.0.22 HTTP/1.1" 200 52225
192.168.1.57 - - [09/Jun/2017:10:19:51 +0300] "GET /images/folder.png HTTP/1.1" 200 51794
192.168.1.57 - - [09/Jun/2017:10:24:21 +0300] "GET /views/newjob.html?v=1.0.51 HTTP/1.1" 200 18904
192.168.1.57 - - [09/Jun/2017:10:24:21 +0300] "GET /fonts/lato/Lato-Black.ttf HTTP/1.1" 200 114588
192.168.1.57 - - [09/Jun/2017:10:29:21 +0300] "GET /images/jobicon.png HTTP/1.1" 200 53130
192.168.1.57 - - [09/Jun/2017:10:32:41 +0300] "GET /images/rule.png HTTP/1.1" 200 53352
192.168.1.57 - - [09/Jun/2017:10:32:51 +0300] "GET /views/newrule.html?v=1.0.51 HTTP/1.1" 200 17199
192.168.1.57 - - [09/Jun/2017:10:32:51 +0300] "GET /images/icon_select.png HTTP/1.1" 200 54907
192.168.1.57 - - [09/Jun/2017:10:32:51 +0300] "GET /images/icon_hand.png HTTP/1.1" 200 54902
192.168.1.57 - - [09/Jun/2017:10:32:51 +0300] "GET /images/icon_start.png HTTP/1.1" 200 52284
192.168.1.57 - - [09/Jun/2017:10:32:51 +0300] "GET /images/icon_end.png HTTP/1.1" 200 52506
192.168.1.57 - - [09/Jun/2017:10:32:51 +0300] "GET /images/icon_decision.png HTTP/1.1" 200 50866
192.168.1.57 - - [09/Jun/2017:10:32:51 +0300] "GET /images/icon_job.png HTTP/1.1" 200 49318
192.168.1.57 - - [09/Jun/2017:10:32:51 +0300] "GET /images/icon_fullscreen.png HTTP/1.1" 200 51698
192.168.1.57 - - [09/Jun/2017:10:32:51 +0300] "GET /images/icon_resetview.png HTTP/1.1" 200 54703
192.168.1.57 - - [09/Jun/2017:10:32:51 +0300] "GET /images/icon_comment.png HTTP/1.1" 200 54564
192.168.1.57 - - [09/Jun/2017:10:32:51 +0300] "GET /images/icon_rule.png HTTP/1.1" 200 49291
192.168.1.57 - - [09/Jun/2017:10:32:51 +0300] "GET /images/icon_zoomin.png HTTP/1.1" 200 53649
192.168.1.57 - - [09/Jun/2017:10:32:51 +0300] "GET /images/icon_zoomout.png HTTP/1.1" 200 53212
192.168.1.57 - - [09/Jun/2017:11:00:16 +0300] "GET /images/icon_delete.png HTTP/1.1" 200 53010
192.168.1.57 - - [09/Jun/2017:11:00:39 +0300] "GET /images/icon_gear.png HTTP/1.1" 200 53940
192.168.1.57 - - [09/Jun/2017:11:08:49 +0300] "GET /views/contextmenu.html?v=1.0.34 HTTP/1.1" 200 2159
192.168.1.57 - - [09/Jun/2017:11:09:48 +0300] "GET /views/notifications.html?v=1.0.51 HTTP/1.1" 200 1204
192.168.1.57 - - [09/Jun/2017:11:09:49 +0300] "GET /images/icon_read.png?v=1.0.38 HTTP/1.1" 200 50894
192.168.1.57 - - [09/Jun/2017:11:09:49 +0300] "GET /images/icon_unread.png?v=1.0.38 HTTP/1.1" 200 47957
192.168.1.57 - - [09/Jun/2017:11:09:55 +0300] "GET /views/monitoring.html?v=1.0.51 HTTP/1.1" 200 21335
192.168.1.57 - - [09/Jun/2017:11:09:56 +0300] "GET /images/icon_livemonitor.png HTTP/1.1" 200 7085
192.168.1.57 - - [09/Jun/2017:11:13:25 +0300] "GET /fonts/glyphicons-halflings-regular.woff2 HTTP/1.1" 200 18028
192.168.1.57 - - [09/Jun/2017:11:15:33 +0300] "GET /views/newfolder.html?v=1.0.51 HTTP/1.1" 200 1941
192.168.1.57 - - [09/Jun/2017:11:16:03 +0300] "GET /views/globalparameters.html?v=1.0.51 HTTP/1.1" 200 3016
192.168.1.57 - - [09/Jun/2017:11:16:03 +0300] "GET /images/parametre.png HTTP/1.1" 200 54021
192.168.1.57 - - [09/Jun/2017:11:20:09 +0300] "GET /views/users.html?v=1.0.51 HTTP/1.1" 200 5661
192.168.1.57 - - [09/Jun/2017:11:20:09 +0300] "GET /images/userobject.png?v=1.0.21 HTTP/1.1" 200 50580
192.168.1.57 - - [09/Jun/2017:11:20:13 +0300] "GET /views/newuser.html?v=1.0.51 HTTP/1.1" 200 4850
192.168.1.57 - - [09/Jun/2017:11:22:31 +0300] "GET /views/settings.html?v=1.0.51 HTTP/1.1" 200 6231
192.168.1.57 - - [09/Jun/2017:11:22:54 +0300] "GET /views/help/index.html?v=1.0.51 HTTP/1.1" 200 2588
192.168.1.57 - - [09/Jun/2017:11:22:55 +0300] "GET /images/user_icon50.png HTTP/1.1" 200 54282
192.168.1.57 - - [09/Jun/2017:11:22:55 +0300] "GET /images/icc_rule50.png HTTP/1.1" 200 64796
192.168.1.57 - - [09/Jun/2017:11:22:55 +0300] "GET /images/icc_administration50.png HTTP/1.1" 200 56570
192.168.1.57 - - [09/Jun/2017:11:22:55 +0300] "GET /images/icc_basics_icon50.png HTTP/1.1" 200 56265
192.168.1.57 - - [09/Jun/2017:11:22:55 +0300] "GET /images/icc_job_templates50.png HTTP/1.1" 200 60307
192.168.1.57 - - [09/Jun/2017:11:22:55 +0300] "GET /images/operations_icon50.png HTTP/1.1" 200 59542
192.168.1.57 - - [09/Jun/2017:11:22:55 +0300] "GET /images/icc_reports50.png HTTP/1.1" 200 55104
192.168.1.57 - - [09/Jun/2017:11:22:59 +0300] "GET /views/help/overview/index.html?v=1.0.51 HTTP/1.1" 200 2359
192.168.1.57 - - [09/Jun/2017:11:22:59 +0300] "GET /views/help/leftMenu.html?v=1.0.51 HTTP/1.1" 200 3678
192.168.1.57 - - [09/Jun/2017:11:22:59 +0300] "GET /images/help/overview/img01.png HTTP/1.1" 200 162275
192.168.1.57 - - [09/Jun/2017:11:22:59 +0300] "GET /images/help/overview/img02.png HTTP/1.1" 200 78383
192.168.1.57 - - [09/Jun/2017:11:22:59 +0300] "GET /images/help_navi_back_gray.png HTTP/1.1" 200 47411
192.168.1.57 - - [09/Jun/2017:11:23:04 +0300] "GET /views/help/account/index.html?v=1.0.51 HTTP/1.1" 200 3558
192.168.1.57 - - [09/Jun/2017:11:23:27 +0300] "GET /views/reports.html?v=1.0.51 HTTP/1.1" 200 22138
