192.168.1.57 - - [18/May/2017:14:18:13 +0300] "GET / HTTP/1.1" 401 285
192.168.1.57 - - [18/May/2017:14:21:14 +0300] "GET /favicon.ico HTTP/1.1" 401 121
192.168.1.57 - - [18/May/2017:15:06:48 +0300] "GET / HTTP/1.1" 401 285
192.168.1.57 - - [18/May/2017:15:06:49 +0300] "GET /favicon.ico HTTP/1.1" 401 121
