192.168.1.92 - - [05/Jul/2017:16:26:18 +0300] "GET /version HTTP/1.1" 200 123
192.168.1.92 - - [05/Jul/2017:16:26:18 +0300] "GET /favicon.ico HTTP/1.1" 401 121
192.168.1.92 - - [05/Jul/2017:16:32:29 +0300] "OPTIONS /login HTTP/1.1" 200 5
192.168.1.92 - - [05/Jul/2017:16:32:29 +0300] "POST /login HTTP/1.1" 200 63
192.168.1.92 - - [05/Jul/2017:16:32:29 +0300] "OPTIONS /profile HTTP/1.1" 200 5
192.168.1.92 - - [05/Jul/2017:16:32:29 +0300] "GET /profile HTTP/1.1" 200 364
192.168.1.92 - - [05/Jul/2017:16:32:30 +0300] "OPTIONS /user/list HTTP/1.1" 200 5
192.168.1.92 - - [05/Jul/2017:16:32:30 +0300] "OPTIONS /notification/count HTTP/1.1" 200 5
192.168.1.92 - - [05/Jul/2017:16:32:30 +0300] "OPTIONS /version HTTP/1.1" 200 5
192.168.1.92 - - [05/Jul/2017:16:32:30 +0300] "OPTIONS /license HTTP/1.1" 200 5
192.168.1.92 - - [05/Jul/2017:16:32:30 +0300] "OPTIONS /version HTTP/1.1" 200 5
192.168.1.92 - - [05/Jul/2017:16:32:30 +0300] "GET /user/list HTTP/1.1" 200 366
192.168.1.92 - - [05/Jul/2017:16:32:30 +0300] "GET /license HTTP/1.1" 200 96
192.168.1.92 - - [05/Jul/2017:16:32:30 +0300] "GET /version HTTP/1.1" 200 123
192.168.1.92 - - [05/Jul/2017:16:32:30 +0300] "GET /version HTTP/1.1" 200 123
192.168.1.92 - - [05/Jul/2017:16:32:30 +0300] "GET /notification/count HTTP/1.1" 200 60
192.168.1.92 - - [05/Jul/2017:16:32:30 +0300] "OPTIONS /role/list HTTP/1.1" 200 5
192.168.1.92 - - [05/Jul/2017:16:32:30 +0300] "OPTIONS /folder/explore HTTP/1.1" 200 5
192.168.1.92 - - [05/Jul/2017:16:32:30 +0300] "GET /user/list HTTP/1.1" 200 366
192.168.1.92 - - [05/Jul/2017:16:32:30 +0300] "GET /role/list HTTP/1.1" 200 61
192.168.1.92 - - [05/Jul/2017:16:32:30 +0300] "GET /folder/explore HTTP/1.1" 200 423
192.168.1.92 - - [05/Jul/2017:16:32:30 +0300] "OPTIONS /job/explore HTTP/1.1" 200 5
192.168.1.92 - - [05/Jul/2017:16:32:30 +0300] "GET /job/explore HTTP/1.1" 200 61
192.168.1.92 - - [05/Jul/2017:16:32:30 +0300] "OPTIONS /rule/explore HTTP/1.1" 200 5
192.168.1.92 - - [05/Jul/2017:16:32:30 +0300] "GET /rule/explore HTTP/1.1" 200 61
192.168.1.92 - - [05/Jul/2017:16:32:30 +0300] "OPTIONS /localparameter/explore HTTP/1.1" 200 5
192.168.1.92 - - [05/Jul/2017:16:32:30 +0300] "GET /localparameter/explore HTTP/1.1" 200 61
192.168.1.92 - - [05/Jul/2017:16:32:30 +0300] "GET /user/list HTTP/1.1" 200 366
192.168.1.92 - - [05/Jul/2017:16:32:40 +0300] "OPTIONS /notification/count HTTP/1.1" 200 5
192.168.1.92 - - [05/Jul/2017:16:32:40 +0300] "GET /notification/count HTTP/1.1" 200 60
192.168.1.92 - - [05/Jul/2017:16:32:50 +0300] "OPTIONS /notification/count HTTP/1.1" 200 5
192.168.1.92 - - [05/Jul/2017:16:32:50 +0300] "GET /notification/count HTTP/1.1" 200 60
192.168.1.92 - - [05/Jul/2017:16:33:00 +0300] "OPTIONS /notification/count HTTP/1.1" 200 5
192.168.1.92 - - [05/Jul/2017:16:33:00 +0300] "GET /notification/count HTTP/1.1" 200 60
192.168.1.92 - - [05/Jul/2017:16:33:10 +0300] "OPTIONS /notification/count HTTP/1.1" 200 5
192.168.1.92 - - [05/Jul/2017:16:33:10 +0300] "GET /notification/count HTTP/1.1" 200 60
192.168.1.92 - - [05/Jul/2017:17:45:46 +0300] "OPTIONS /login HTTP/1.1" 200 5
192.168.1.92 - - [05/Jul/2017:17:45:46 +0300] "POST /login HTTP/1.1" 200 63
192.168.1.92 - - [05/Jul/2017:17:45:46 +0300] "OPTIONS /profile HTTP/1.1" 200 5
192.168.1.92 - - [05/Jul/2017:17:45:46 +0300] "GET /profile HTTP/1.1" 200 364
192.168.1.92 - - [05/Jul/2017:17:45:47 +0300] "OPTIONS /user/list HTTP/1.1" 200 5
192.168.1.92 - - [05/Jul/2017:17:45:47 +0300] "OPTIONS /license HTTP/1.1" 200 5
192.168.1.92 - - [05/Jul/2017:17:45:47 +0300] "OPTIONS /notification/count HTTP/1.1" 200 5
192.168.1.92 - - [05/Jul/2017:17:45:47 +0300] "OPTIONS /version HTTP/1.1" 200 5
192.168.1.92 - - [05/Jul/2017:17:45:47 +0300] "OPTIONS /version HTTP/1.1" 200 5
192.168.1.92 - - [05/Jul/2017:17:45:47 +0300] "GET /user/list HTTP/1.1" 200 366
192.168.1.92 - - [05/Jul/2017:17:45:47 +0300] "GET /license HTTP/1.1" 200 96
192.168.1.92 - - [05/Jul/2017:17:45:47 +0300] "GET /notification/count HTTP/1.1" 200 60
192.168.1.92 - - [05/Jul/2017:17:45:47 +0300] "GET /version HTTP/1.1" 200 123
192.168.1.92 - - [05/Jul/2017:17:45:47 +0300] "GET /version HTTP/1.1" 200 123
192.168.1.92 - - [05/Jul/2017:17:45:47 +0300] "OPTIONS /folder/explore HTTP/1.1" 200 5
192.168.1.92 - - [05/Jul/2017:17:45:47 +0300] "OPTIONS /role/list HTTP/1.1" 200 5
192.168.1.92 - - [05/Jul/2017:17:45:47 +0300] "GET /user/list HTTP/1.1" 200 366
192.168.1.92 - - [05/Jul/2017:17:45:47 +0300] "GET /role/list HTTP/1.1" 200 61
192.168.1.92 - - [05/Jul/2017:17:45:47 +0300] "GET /folder/explore HTTP/1.1" 200 423
192.168.1.92 - - [05/Jul/2017:17:45:47 +0300] "OPTIONS /job/explore HTTP/1.1" 200 5
192.168.1.92 - - [05/Jul/2017:17:45:47 +0300] "GET /job/explore HTTP/1.1" 200 61
192.168.1.92 - - [05/Jul/2017:17:45:47 +0300] "OPTIONS /rule/explore HTTP/1.1" 200 5
192.168.1.92 - - [05/Jul/2017:17:45:47 +0300] "GET /rule/explore HTTP/1.1" 200 61
192.168.1.92 - - [05/Jul/2017:17:45:47 +0300] "OPTIONS /localparameter/explore HTTP/1.1" 200 5
192.168.1.92 - - [05/Jul/2017:17:45:47 +0300] "GET /localparameter/explore HTTP/1.1" 200 61
192.168.1.92 - - [05/Jul/2017:17:45:47 +0300] "GET /user/list HTTP/1.1" 200 366
192.168.1.92 - - [05/Jul/2017:17:45:54 +0300] "OPTIONS /globalparameter/list HTTP/1.1" 200 5
192.168.1.92 - - [05/Jul/2017:17:45:54 +0300] "OPTIONS /version HTTP/1.1" 200 5
192.168.1.92 - - [05/Jul/2017:17:45:54 +0300] "GET /globalparameter/list HTTP/1.1" 200 61
192.168.1.92 - - [05/Jul/2017:17:45:54 +0300] "GET /version HTTP/1.1" 200 123
192.168.1.92 - - [05/Jul/2017:17:45:55 +0300] "OPTIONS /operation/today HTTP/1.1" 200 5
192.168.1.92 - - [05/Jul/2017:17:45:55 +0300] "GET /operation/today HTTP/1.1" 200 61
192.168.1.92 - - [05/Jul/2017:17:45:57 +0300] "OPTIONS /notification/count HTTP/1.1" 200 5
192.168.1.92 - - [05/Jul/2017:17:45:57 +0300] "GET /notification/count HTTP/1.1" 200 60
192.168.1.92 - - [05/Jul/2017:17:45:57 +0300] "OPTIONS /notification/list?page=0&size=20 HTTP/1.1" 200 5
192.168.1.92 - - [05/Jul/2017:17:45:57 +0300] "GET /notification/list?page=0&size=20 HTTP/1.1" 200 61
192.168.1.92 - - [05/Jul/2017:17:45:57 +0300] "OPTIONS /notification/list?page=1&size=20 HTTP/1.1" 200 5
192.168.1.92 - - [05/Jul/2017:17:45:57 +0300] "GET /notification/list?page=1&size=20 HTTP/1.1" 200 61
192.168.1.92 - - [05/Jul/2017:17:45:57 +0300] "GET /notification/count HTTP/1.1" 200 60
192.168.1.92 - - [05/Jul/2017:17:45:57 +0300] "OPTIONS /connection/list HTTP/1.1" 200 5
192.168.1.92 - - [05/Jul/2017:17:45:57 +0300] "GET /version HTTP/1.1" 200 123
192.168.1.92 - - [05/Jul/2017:17:45:57 +0300] "GET /connection/list HTTP/1.1" 200 342
192.168.1.92 - - [05/Jul/2017:17:45:59 +0300] "OPTIONS /user/list HTTP/1.1" 200 5
192.168.1.92 - - [05/Jul/2017:17:45:59 +0300] "GET /user/list HTTP/1.1" 200 366
192.168.1.92 - - [05/Jul/2017:17:45:59 +0300] "GET /version HTTP/1.1" 200 123
192.168.1.92 - - [05/Jul/2017:17:46:00 +0300] "OPTIONS /role/list HTTP/1.1" 200 5
192.168.1.92 - - [05/Jul/2017:17:46:00 +0300] "OPTIONS /version HTTP/1.1" 200 5
192.168.1.92 - - [05/Jul/2017:17:46:00 +0300] "GET /role/list HTTP/1.1" 200 61
192.168.1.92 - - [05/Jul/2017:17:46:00 +0300] "GET /version HTTP/1.1" 200 123
192.168.1.92 - - [05/Jul/2017:17:46:01 +0300] "GET /version HTTP/1.1" 200 123
192.168.1.92 - - [05/Jul/2017:17:46:01 +0300] "OPTIONS /folder/explore HTTP/1.1" 200 5
192.168.1.92 - - [05/Jul/2017:17:46:01 +0300] "GET /role/list HTTP/1.1" 200 61
192.168.1.92 - - [05/Jul/2017:17:46:01 +0300] "GET /folder/explore HTTP/1.1" 200 423
192.168.1.92 - - [05/Jul/2017:17:46:01 +0300] "OPTIONS /job/explore HTTP/1.1" 200 5
192.168.1.92 - - [05/Jul/2017:17:46:01 +0300] "GET /job/explore HTTP/1.1" 200 61
192.168.1.92 - - [05/Jul/2017:17:46:01 +0300] "OPTIONS /rule/explore HTTP/1.1" 200 5
192.168.1.92 - - [05/Jul/2017:17:46:01 +0300] "GET /rule/explore HTTP/1.1" 200 61
192.168.1.92 - - [05/Jul/2017:17:46:01 +0300] "OPTIONS /localparameter/explore HTTP/1.1" 200 5
192.168.1.92 - - [05/Jul/2017:17:46:01 +0300] "GET /localparameter/explore HTTP/1.1" 200 61
192.168.1.92 - - [05/Jul/2017:17:46:01 +0300] "GET /user/list HTTP/1.1" 200 366
192.168.1.92 - - [05/Jul/2017:17:46:07 +0300] "OPTIONS /notification/count HTTP/1.1" 200 5
192.168.1.92 - - [05/Jul/2017:17:46:07 +0300] "GET /notification/count HTTP/1.1" 200 60
192.168.1.92 - - [05/Jul/2017:17:46:17 +0300] "OPTIONS /notification/count HTTP/1.1" 200 5
192.168.1.92 - - [05/Jul/2017:17:46:17 +0300] "GET /notification/count HTTP/1.1" 200 60
192.168.1.92 - - [05/Jul/2017:17:46:27 +0300] "OPTIONS /notification/count HTTP/1.1" 200 5
192.168.1.92 - - [05/Jul/2017:17:46:27 +0300] "GET /notification/count HTTP/1.1" 200 60
192.168.1.92 - - [05/Jul/2017:17:46:37 +0300] "OPTIONS /notification/count HTTP/1.1" 200 5
192.168.1.92 - - [05/Jul/2017:17:46:37 +0300] "GET /notification/count HTTP/1.1" 200 60
192.168.1.92 - - [05/Jul/2017:17:46:47 +0300] "OPTIONS /notification/count HTTP/1.1" 200 5
192.168.1.92 - - [05/Jul/2017:17:46:47 +0300] "GET /notification/count HTTP/1.1" 200 60
192.168.1.92 - - [05/Jul/2017:17:46:57 +0300] "OPTIONS /notification/count HTTP/1.1" 200 5
192.168.1.92 - - [05/Jul/2017:17:46:57 +0300] "GET /notification/count HTTP/1.1" 200 60
192.168.1.92 - - [05/Jul/2017:17:47:07 +0300] "OPTIONS /notification/count HTTP/1.1" 200 5
192.168.1.92 - - [05/Jul/2017:17:47:07 +0300] "GET /notification/count HTTP/1.1" 200 60
192.168.1.92 - - [05/Jul/2017:17:47:17 +0300] "OPTIONS /notification/count HTTP/1.1" 200 5
192.168.1.92 - - [05/Jul/2017:17:47:17 +0300] "GET /notification/count HTTP/1.1" 200 60
192.168.1.92 - - [05/Jul/2017:17:47:27 +0300] "OPTIONS /notification/count HTTP/1.1" 200 5
192.168.1.92 - - [05/Jul/2017:17:47:27 +0300] "GET /notification/count HTTP/1.1" 200 60
