192.168.1.57 - - [12/Jun/2017:11:46:21 +0300] "GET / HTTP/1.1" 401 285
192.168.1.57 - - [12/Jun/2017:11:46:23 +0300] "GET /favicon.ico HTTP/1.1" 401 121
192.168.1.57 - - [12/Jun/2017:11:46:26 +0300] "GET / HTTP/1.1" 401 285
192.168.1.57 - - [12/Jun/2017:11:46:27 +0300] "GET /favicon.ico HTTP/1.1" 401 121
