192.168.1.92 - - [06/Jul/2017:16:06:12 +0300] "GET / HTTP/1.1" 200 17401
192.168.1.92 - - [06/Jul/2017:16:06:12 +0300] "GET /styles/lena.common.css HTTP/1.1" 200 265637
192.168.1.92 - - [06/Jul/2017:16:06:12 +0300] "GET /styles/bootstrap.css HTTP/1.1" 200 146082
192.168.1.92 - - [06/Jul/2017:16:06:12 +0300] "GET /styles/lena.material.css HTTP/1.1" 200 86923
192.168.1.92 - - [06/Jul/2017:16:06:12 +0300] "GET /styles/font-awesome.css HTTP/1.1" 200 32318
192.168.1.92 - - [06/Jul/2017:16:06:12 +0300] "GET /styles/datetimepicker.css HTTP/1.1" 200 11941
192.168.1.92 - - [06/Jul/2017:16:06:12 +0300] "GET /styles/styles.css?v=1.0.51 HTTP/1.1" 200 56062
192.168.1.92 - - [06/Jul/2017:16:06:12 +0300] "GET /styles/sqlcolor.css HTTP/1.1" 200 916
192.168.1.92 - - [06/Jul/2017:16:06:12 +0300] "GET /scripts/components/jquery-2.2.0.js HTTP/1.1" 200 258388
192.168.1.92 - - [06/Jul/2017:16:06:12 +0300] "GET /scripts/components/lenaDiagram.js HTTP/1.1" 200 2707829
192.168.1.92 - - [06/Jul/2017:16:06:12 +0300] "GET /scripts/scripts.js?v=1.0.51 HTTP/1.1" 200 14332
192.168.1.92 - - [06/Jul/2017:16:06:12 +0300] "GET /scripts/components/jquery-ui.js HTTP/1.1" 200 470596
192.168.1.92 - - [06/Jul/2017:16:06:12 +0300] "GET /scripts/components/highlight.pack.js HTTP/1.1" 200 19511
192.168.1.92 - - [06/Jul/2017:16:06:12 +0300] "GET /scripts/components/bootstrap.js HTTP/1.1" 200 68954
192.168.1.92 - - [06/Jul/2017:16:06:12 +0300] "GET /scripts/components/angular.js HTTP/1.1" 200 1070726
192.168.1.92 - - [06/Jul/2017:16:06:12 +0300] "GET /scripts/components/moment.min.js HTTP/1.1" 200 46645
192.168.1.92 - - [06/Jul/2017:16:06:12 +0300] "GET /fonts/lato/Lato-Bold.ttf HTTP/1.1" 200 121788
192.168.1.92 - - [06/Jul/2017:16:06:12 +0300] "GET /scripts/components/angular-route.js HTTP/1.1" 200 35877
192.168.1.92 - - [06/Jul/2017:16:06:12 +0300] "GET /scripts/components/angular-cookies.js HTTP/1.1" 200 9729
192.168.1.92 - - [06/Jul/2017:16:06:12 +0300] "GET /scripts/components/angular-sanitize.js HTTP/1.1" 200 24546
192.168.1.92 - - [06/Jul/2017:16:06:12 +0300] "GET /scripts/components/ngtimeago.js HTTP/1.1" 200 3410
192.168.1.92 - - [06/Jul/2017:16:06:12 +0300] "GET /scripts/components/dateTimeInput.js HTTP/1.1" 200 6012
192.168.1.92 - - [06/Jul/2017:16:06:12 +0300] "GET /scripts/components/bootstrap-datetimepicker.js HTTP/1.1" 200 100882
192.168.1.92 - - [06/Jul/2017:16:06:12 +0300] "GET /scripts/components/angucomplete-alt.min.js HTTP/1.1" 200 11106
192.168.1.92 - - [06/Jul/2017:16:06:12 +0300] "GET /scripts/components/ng-contextmenu.min.js HTTP/1.1" 200 2121
192.168.1.92 - - [06/Jul/2017:16:06:12 +0300] "GET /scripts/app.js?v=1.0.51 HTTP/1.1" 200 7162
192.168.1.92 - - [06/Jul/2017:16:06:12 +0300] "GET /scripts/services/dataService.js?v=1.0.51 HTTP/1.1" 200 52121
192.168.1.92 - - [06/Jul/2017:16:06:12 +0300] "GET /scripts/services/bussinessService.js?v=1.0.51 HTTP/1.1" 200 8121
192.168.1.92 - - [06/Jul/2017:16:06:12 +0300] "GET /scripts/controllers/controllers.js?v=1.0.51 HTTP/1.1" 200 199242
192.168.1.92 - - [06/Jul/2017:16:06:12 +0300] "GET /images/icc_logo_50.png HTTP/1.1" 200 59970
192.168.1.92 - - [06/Jul/2017:16:06:12 +0300] "GET /images/icc_top_background.png HTTP/1.1" 200 62468
192.168.1.92 - - [06/Jul/2017:16:06:12 +0300] "GET /views/explorer.html?v=1.0.51 HTTP/1.1" 200 14631
192.168.1.92 - - [06/Jul/2017:16:06:13 +0300] "GET /views/login.html?v=1.0.51 HTTP/1.1" 200 3311
192.168.1.92 - - [06/Jul/2017:16:06:13 +0300] "GET /fonts/fontawesome-webfont.woff2?v=4.4.0 HTTP/1.1" 200 64464
192.168.1.92 - - [06/Jul/2017:16:07:56 +0300] "GET /config.json?v=299 HTTP/1.1" 200 7760
192.168.1.83 - - [06/Jul/2017:16:10:47 +0300] "GET / HTTP/1.1" 200 17401
192.168.1.83 - - [06/Jul/2017:16:10:47 +0300] "GET /styles/bootstrap.css HTTP/1.1" 200 146082
192.168.1.83 - - [06/Jul/2017:16:10:47 +0300] "GET /styles/datetimepicker.css HTTP/1.1" 200 11941
192.168.1.83 - - [06/Jul/2017:16:10:47 +0300] "GET /styles/lena.common.css HTTP/1.1" 200 265637
192.168.1.83 - - [06/Jul/2017:16:10:47 +0300] "GET /styles/font-awesome.css HTTP/1.1" 200 32318
192.168.1.83 - - [06/Jul/2017:16:10:47 +0300] "GET /styles/lena.material.css HTTP/1.1" 200 86923
192.168.1.83 - - [06/Jul/2017:16:10:47 +0300] "GET /styles/sqlcolor.css HTTP/1.1" 200 916
192.168.1.83 - - [06/Jul/2017:16:10:47 +0300] "GET /styles/styles.css?v=1.0.51 HTTP/1.1" 200 56062
192.168.1.83 - - [06/Jul/2017:16:10:47 +0300] "GET /scripts/components/jquery-2.2.0.js HTTP/1.1" 200 258388
192.168.1.83 - - [06/Jul/2017:16:10:47 +0300] "GET /scripts/components/jquery-ui.js HTTP/1.1" 200 470596
192.168.1.83 - - [06/Jul/2017:16:10:47 +0300] "GET /scripts/components/highlight.pack.js HTTP/1.1" 200 19511
192.168.1.83 - - [06/Jul/2017:16:10:47 +0300] "GET /scripts/scripts.js?v=1.0.51 HTTP/1.1" 200 14332
192.168.1.83 - - [06/Jul/2017:16:10:47 +0300] "GET /scripts/components/lenaDiagram.js HTTP/1.1" 200 2707829
192.168.1.83 - - [06/Jul/2017:16:10:47 +0300] "GET /scripts/components/bootstrap.js HTTP/1.1" 200 68954
192.168.1.83 - - [06/Jul/2017:16:10:47 +0300] "GET /scripts/components/moment.min.js HTTP/1.1" 200 46645
192.168.1.83 - - [06/Jul/2017:16:10:47 +0300] "GET /fonts/lato/Lato-Bold.ttf HTTP/1.1" 200 121788
192.168.1.83 - - [06/Jul/2017:16:10:47 +0300] "GET /scripts/components/angular.js HTTP/1.1" 200 1070726
192.168.1.83 - - [06/Jul/2017:16:10:47 +0300] "GET /scripts/components/angular-route.js HTTP/1.1" 200 35877
192.168.1.83 - - [06/Jul/2017:16:10:47 +0300] "GET /scripts/components/angular-cookies.js HTTP/1.1" 200 9729
192.168.1.83 - - [06/Jul/2017:16:10:47 +0300] "GET /scripts/components/angular-sanitize.js HTTP/1.1" 200 24546
192.168.1.83 - - [06/Jul/2017:16:10:47 +0300] "GET /scripts/components/ngtimeago.js HTTP/1.1" 200 3410
192.168.1.83 - - [06/Jul/2017:16:10:47 +0300] "GET /scripts/components/dateTimeInput.js HTTP/1.1" 200 6012
192.168.1.83 - - [06/Jul/2017:16:10:48 +0300] "GET /scripts/components/bootstrap-datetimepicker.js HTTP/1.1" 200 100882
192.168.1.83 - - [06/Jul/2017:16:10:48 +0300] "GET /scripts/components/angucomplete-alt.min.js HTTP/1.1" 200 11106
192.168.1.83 - - [06/Jul/2017:16:10:48 +0300] "GET /scripts/components/ng-contextmenu.min.js HTTP/1.1" 200 2121
192.168.1.83 - - [06/Jul/2017:16:10:48 +0300] "GET /scripts/app.js?v=1.0.51 HTTP/1.1" 200 7162
192.168.1.83 - - [06/Jul/2017:16:10:48 +0300] "GET /scripts/services/dataService.js?v=1.0.51 HTTP/1.1" 200 52121
192.168.1.83 - - [06/Jul/2017:16:10:48 +0300] "GET /scripts/services/bussinessService.js?v=1.0.51 HTTP/1.1" 200 8121
192.168.1.83 - - [06/Jul/2017:16:10:48 +0300] "GET /scripts/controllers/controllers.js?v=1.0.51 HTTP/1.1" 200 199242
192.168.1.83 - - [06/Jul/2017:16:10:48 +0300] "GET /images/icc_logo_50.png HTTP/1.1" 200 59970
192.168.1.83 - - [06/Jul/2017:16:10:48 +0300] "GET /images/icc_top_background.png HTTP/1.1" 200 62468
192.168.1.83 - - [06/Jul/2017:16:10:52 +0300] "GET /views/login.html?v=1.0.51 HTTP/1.1" 200 3311
192.168.1.83 - - [06/Jul/2017:16:10:52 +0300] "GET /favicon.ico HTTP/1.1" 200 1150
192.168.1.83 - - [06/Jul/2017:16:10:56 +0300] "GET /config.json?v=999 HTTP/1.1" 200 7760
