192.168.1.52 - - [23/May/2017:13:45:03 +0300] "GET /version HTTP/1.1" 200 123
192.168.1.52 - - [23/May/2017:13:45:03 +0300] "GET /favicon.ico HTTP/1.1" 401 121
192.168.1.52 - - [23/May/2017:13:46:14 +0300] "OPTIONS /login HTTP/1.1" 200 5
192.168.1.52 - - [23/May/2017:13:46:14 +0300] "POST /login HTTP/1.1" 403 87
192.168.1.52 - - [23/May/2017:13:46:16 +0300] "POST /login HTTP/1.1" 403 87
192.168.1.52 - - [23/May/2017:13:46:18 +0300] "POST /login HTTP/1.1" 403 87
192.168.1.52 - - [23/May/2017:13:46:20 +0300] "OPTIONS /login HTTP/1.1" 200 5
192.168.1.52 - - [23/May/2017:13:46:20 +0300] "POST /login HTTP/1.1" 403 87
192.168.1.52 - - [23/May/2017:13:46:20 +0300] "POST /login HTTP/1.1" 403 87
192.168.1.52 - - [23/May/2017:13:46:20 +0300] "POST /login HTTP/1.1" 403 87
192.168.1.52 - - [23/May/2017:13:46:28 +0300] "OPTIONS /login HTTP/1.1" 200 5
192.168.1.52 - - [23/May/2017:13:46:28 +0300] "POST /login HTTP/1.1" 200 63
192.168.1.52 - - [23/May/2017:13:46:28 +0300] "OPTIONS /profile HTTP/1.1" 200 5
192.168.1.52 - - [23/May/2017:13:46:28 +0300] "GET /profile HTTP/1.1" 200 364
192.168.1.52 - - [23/May/2017:13:46:29 +0300] "OPTIONS /user/list HTTP/1.1" 200 5
192.168.1.52 - - [23/May/2017:13:46:29 +0300] "OPTIONS /notification/count HTTP/1.1" 200 5
192.168.1.52 - - [23/May/2017:13:46:30 +0300] "OPTIONS /version HTTP/1.1" 200 5
192.168.1.52 - - [23/May/2017:13:46:30 +0300] "OPTIONS /license HTTP/1.1" 200 5
192.168.1.52 - - [23/May/2017:13:46:30 +0300] "OPTIONS /version HTTP/1.1" 200 5
192.168.1.52 - - [23/May/2017:13:46:30 +0300] "GET /user/list HTTP/1.1" 200 366
192.168.1.52 - - [23/May/2017:13:46:30 +0300] "GET /license HTTP/1.1" 200 96
192.168.1.52 - - [23/May/2017:13:46:30 +0300] "GET /notification/count HTTP/1.1" 200 60
192.168.1.52 - - [23/May/2017:13:46:30 +0300] "GET /version HTTP/1.1" 200 123
192.168.1.52 - - [23/May/2017:13:46:30 +0300] "GET /version HTTP/1.1" 200 123
192.168.1.52 - - [23/May/2017:13:46:30 +0300] "OPTIONS /folder/explore HTTP/1.1" 200 5
192.168.1.52 - - [23/May/2017:13:46:30 +0300] "GET /folder/explore HTTP/1.1" 200 61
192.168.1.52 - - [23/May/2017:13:46:30 +0300] "OPTIONS /job/explore HTTP/1.1" 200 5
192.168.1.52 - - [23/May/2017:13:46:30 +0300] "GET /job/explore HTTP/1.1" 200 61
192.168.1.52 - - [23/May/2017:13:46:31 +0300] "OPTIONS /rule/explore HTTP/1.1" 200 5
192.168.1.52 - - [23/May/2017:13:46:32 +0300] "GET /rule/explore HTTP/1.1" 200 61
192.168.1.52 - - [23/May/2017:13:46:32 +0300] "OPTIONS /localparameter/explore HTTP/1.1" 200 5
192.168.1.52 - - [23/May/2017:13:46:32 +0300] "GET /localparameter/explore HTTP/1.1" 200 61
192.168.1.52 - - [23/May/2017:13:46:32 +0300] "GET /user/list HTTP/1.1" 200 366
192.168.1.52 - - [23/May/2017:13:46:39 +0300] "OPTIONS /notification/count HTTP/1.1" 200 5
192.168.1.52 - - [23/May/2017:13:46:39 +0300] "GET /notification/count HTTP/1.1" 200 60
192.168.1.52 - - [23/May/2017:13:46:40 +0300] "OPTIONS /version HTTP/1.1" 200 5
192.168.1.52 - - [23/May/2017:13:46:40 +0300] "OPTIONS /user/list HTTP/1.1" 200 5
192.168.1.52 - - [23/May/2017:13:46:40 +0300] "GET /version HTTP/1.1" 200 123
192.168.1.52 - - [23/May/2017:13:46:40 +0300] "GET /user/list HTTP/1.1" 200 366
192.168.1.52 - - [23/May/2017:13:46:42 +0300] "GET /version HTTP/1.1" 200 123
192.168.1.52 - - [23/May/2017:13:46:42 +0300] "OPTIONS /folder/explore HTTP/1.1" 200 5
192.168.1.52 - - [23/May/2017:13:46:42 +0300] "GET /folder/explore HTTP/1.1" 200 61
192.168.1.52 - - [23/May/2017:13:46:42 +0300] "OPTIONS /job/explore HTTP/1.1" 200 5
192.168.1.52 - - [23/May/2017:13:46:42 +0300] "GET /job/explore HTTP/1.1" 200 61
192.168.1.52 - - [23/May/2017:13:46:42 +0300] "OPTIONS /rule/explore HTTP/1.1" 200 5
192.168.1.52 - - [23/May/2017:13:46:42 +0300] "GET /rule/explore HTTP/1.1" 200 61
192.168.1.52 - - [23/May/2017:13:46:43 +0300] "OPTIONS /localparameter/explore HTTP/1.1" 200 5
192.168.1.52 - - [23/May/2017:13:46:43 +0300] "GET /localparameter/explore HTTP/1.1" 200 61
192.168.1.52 - - [23/May/2017:13:46:43 +0300] "GET /user/list HTTP/1.1" 200 366
192.168.1.52 - - [23/May/2017:13:46:49 +0300] "OPTIONS /notification/count HTTP/1.1" 200 5
192.168.1.52 - - [23/May/2017:13:46:49 +0300] "GET /notification/count HTTP/1.1" 200 60
192.168.1.52 - - [23/May/2017:13:46:59 +0300] "OPTIONS /notification/count HTTP/1.1" 200 5
192.168.1.52 - - [23/May/2017:13:46:59 +0300] "GET /notification/count HTTP/1.1" 200 60
192.168.1.52 - - [23/May/2017:13:47:09 +0300] "OPTIONS /notification/count HTTP/1.1" 200 5
192.168.1.52 - - [23/May/2017:13:47:09 +0300] "GET /notification/count HTTP/1.1" 200 60
192.168.1.52 - - [23/May/2017:13:47:19 +0300] "OPTIONS /notification/count HTTP/1.1" 200 5
192.168.1.52 - - [23/May/2017:13:47:19 +0300] "GET /notification/count HTTP/1.1" 200 60
192.168.1.52 - - [23/May/2017:13:47:22 +0300] "OPTIONS /operation/today HTTP/1.1" 200 5
192.168.1.52 - - [23/May/2017:13:47:22 +0300] "GET /operation/today HTTP/1.1" 200 61
192.168.1.52 - - [23/May/2017:13:47:23 +0300] "OPTIONS /operation/history?from=20170522&to=20170522&page=0&size=20 HTTP/1.1" 200 5
192.168.1.52 - - [23/May/2017:13:47:23 +0300] "GET /operation/history?from=20170522&to=20170522&page=0&size=20 HTTP/1.1" 200 61
192.168.1.52 - - [23/May/2017:13:47:29 +0300] "OPTIONS /notification/count HTTP/1.1" 200 5
192.168.1.52 - - [23/May/2017:13:47:29 +0300] "GET /notification/count HTTP/1.1" 200 60
192.168.1.52 - - [23/May/2017:13:47:40 +0300] "OPTIONS /notification/count HTTP/1.1" 200 5
192.168.1.52 - - [23/May/2017:13:47:40 +0300] "GET /notification/count HTTP/1.1" 200 60
192.168.1.52 - - [23/May/2017:13:47:50 +0300] "OPTIONS /notification/count HTTP/1.1" 200 5
192.168.1.52 - - [23/May/2017:13:47:50 +0300] "GET /notification/count HTTP/1.1" 200 60
192.168.1.52 - - [23/May/2017:13:48:00 +0300] "OPTIONS /notification/count HTTP/1.1" 200 5
192.168.1.52 - - [23/May/2017:13:48:00 +0300] "GET /notification/count HTTP/1.1" 200 60
192.168.1.52 - - [23/May/2017:13:48:09 +0300] "OPTIONS /notification/count HTTP/1.1" 200 5
192.168.1.52 - - [23/May/2017:13:48:09 +0300] "GET /notification/count HTTP/1.1" 200 60
192.168.1.52 - - [23/May/2017:13:48:20 +0300] "OPTIONS /notification/count HTTP/1.1" 200 5
192.168.1.52 - - [23/May/2017:13:48:20 +0300] "GET /notification/count HTTP/1.1" 200 60
192.168.1.52 - - [23/May/2017:13:48:30 +0300] "OPTIONS /notification/count HTTP/1.1" 200 5
192.168.1.52 - - [23/May/2017:13:48:30 +0300] "GET /notification/count HTTP/1.1" 200 60
192.168.1.52 - - [23/May/2017:13:48:40 +0300] "OPTIONS /notification/count HTTP/1.1" 200 5
192.168.1.52 - - [23/May/2017:13:48:40 +0300] "GET /notification/count HTTP/1.1" 200 60
192.168.1.52 - - [23/May/2017:13:48:50 +0300] "OPTIONS /notification/count HTTP/1.1" 200 5
192.168.1.52 - - [23/May/2017:13:48:50 +0300] "GET /notification/count HTTP/1.1" 200 60
192.168.1.52 - - [23/May/2017:13:49:00 +0300] "OPTIONS /notification/count HTTP/1.1" 200 5
192.168.1.52 - - [23/May/2017:13:49:00 +0300] "GET /notification/count HTTP/1.1" 200 60
192.168.1.52 - - [23/May/2017:13:49:10 +0300] "OPTIONS /notification/count HTTP/1.1" 200 5
192.168.1.52 - - [23/May/2017:13:49:10 +0300] "GET /notification/count HTTP/1.1" 200 60
192.168.1.52 - - [23/May/2017:13:49:20 +0300] "OPTIONS /notification/count HTTP/1.1" 200 5
192.168.1.52 - - [23/May/2017:13:49:20 +0300] "GET /notification/count HTTP/1.1" 200 60
192.168.1.52 - - [23/May/2017:13:49:30 +0300] "OPTIONS /notification/count HTTP/1.1" 200 5
192.168.1.52 - - [23/May/2017:13:49:30 +0300] "GET /notification/count HTTP/1.1" 200 60
192.168.1.52 - - [23/May/2017:13:49:40 +0300] "OPTIONS /notification/count HTTP/1.1" 200 5
192.168.1.52 - - [23/May/2017:13:49:40 +0300] "GET /notification/count HTTP/1.1" 200 60
192.168.1.52 - - [23/May/2017:13:49:50 +0300] "OPTIONS /notification/count HTTP/1.1" 200 5
192.168.1.52 - - [23/May/2017:13:49:50 +0300] "GET /notification/count HTTP/1.1" 200 60
192.168.1.52 - - [23/May/2017:13:50:00 +0300] "OPTIONS /notification/count HTTP/1.1" 200 5
192.168.1.52 - - [23/May/2017:13:50:00 +0300] "GET /notification/count HTTP/1.1" 200 60
192.168.1.52 - - [23/May/2017:13:50:10 +0300] "OPTIONS /notification/count HTTP/1.1" 200 5
192.168.1.52 - - [23/May/2017:13:50:10 +0300] "GET /notification/count HTTP/1.1" 200 60
192.168.1.52 - - [23/May/2017:13:50:20 +0300] "OPTIONS /notification/count HTTP/1.1" 200 5
192.168.1.52 - - [23/May/2017:13:50:20 +0300] "GET /notification/count HTTP/1.1" 200 60
192.168.1.52 - - [23/May/2017:13:50:30 +0300] "OPTIONS /notification/count HTTP/1.1" 200 5
192.168.1.52 - - [23/May/2017:13:50:30 +0300] "GET /notification/count HTTP/1.1" 200 60
192.168.1.52 - - [23/May/2017:13:50:40 +0300] "OPTIONS /notification/count HTTP/1.1" 200 5
192.168.1.52 - - [23/May/2017:13:50:40 +0300] "GET /notification/count HTTP/1.1" 200 60
192.168.1.52 - - [23/May/2017:13:50:50 +0300] "OPTIONS /notification/count HTTP/1.1" 200 5
192.168.1.52 - - [23/May/2017:13:50:50 +0300] "GET /notification/count HTTP/1.1" 200 60
192.168.1.52 - - [23/May/2017:13:51:00 +0300] "OPTIONS /notification/count HTTP/1.1" 200 5
192.168.1.52 - - [23/May/2017:13:51:00 +0300] "GET /notification/count HTTP/1.1" 200 60
192.168.1.52 - - [23/May/2017:13:51:10 +0300] "OPTIONS /notification/count HTTP/1.1" 200 5
192.168.1.52 - - [23/May/2017:13:51:10 +0300] "GET /notification/count HTTP/1.1" 200 60
192.168.1.52 - - [23/May/2017:13:51:20 +0300] "OPTIONS /notification/count HTTP/1.1" 200 5
192.168.1.52 - - [23/May/2017:13:51:20 +0300] "GET /notification/count HTTP/1.1" 200 60
192.168.1.52 - - [23/May/2017:13:51:30 +0300] "OPTIONS /notification/count HTTP/1.1" 200 5
192.168.1.52 - - [23/May/2017:13:51:30 +0300] "GET /notification/count HTTP/1.1" 200 60
192.168.1.52 - - [23/May/2017:13:51:40 +0300] "OPTIONS /notification/count HTTP/1.1" 200 5
192.168.1.52 - - [23/May/2017:13:51:40 +0300] "GET /notification/count HTTP/1.1" 200 60
192.168.1.52 - - [23/May/2017:13:51:50 +0300] "OPTIONS /notification/count HTTP/1.1" 200 5
192.168.1.52 - - [23/May/2017:13:51:50 +0300] "GET /notification/count HTTP/1.1" 200 60
192.168.1.52 - - [23/May/2017:13:52:00 +0300] "OPTIONS /notification/count HTTP/1.1" 200 5
192.168.1.52 - - [23/May/2017:13:52:00 +0300] "GET /notification/count HTTP/1.1" 200 60
192.168.1.52 - - [23/May/2017:13:52:10 +0300] "OPTIONS /notification/count HTTP/1.1" 200 5
192.168.1.52 - - [23/May/2017:13:52:10 +0300] "GET /notification/count HTTP/1.1" 200 60
192.168.1.52 - - [23/May/2017:13:52:20 +0300] "OPTIONS /notification/count HTTP/1.1" 200 5
192.168.1.52 - - [23/May/2017:13:52:20 +0300] "GET /notification/count HTTP/1.1" 200 60
192.168.1.52 - - [23/May/2017:13:52:30 +0300] "OPTIONS /notification/count HTTP/1.1" 200 5
192.168.1.52 - - [23/May/2017:13:52:30 +0300] "GET /notification/count HTTP/1.1" 200 60
192.168.1.52 - - [23/May/2017:13:52:40 +0300] "OPTIONS /notification/count HTTP/1.1" 200 5
192.168.1.52 - - [23/May/2017:13:52:40 +0300] "GET /notification/count HTTP/1.1" 200 60
192.168.1.52 - - [23/May/2017:13:52:50 +0300] "OPTIONS /notification/count HTTP/1.1" 200 5
192.168.1.52 - - [23/May/2017:13:52:50 +0300] "GET /notification/count HTTP/1.1" 200 60
192.168.1.52 - - [23/May/2017:13:53:00 +0300] "OPTIONS /notification/count HTTP/1.1" 200 5
192.168.1.52 - - [23/May/2017:13:53:00 +0300] "GET /notification/count HTTP/1.1" 200 60
192.168.1.52 - - [23/May/2017:13:53:10 +0300] "OPTIONS /notification/count HTTP/1.1" 200 5
192.168.1.52 - - [23/May/2017:13:53:10 +0300] "GET /notification/count HTTP/1.1" 200 60
192.168.1.52 - - [23/May/2017:13:53:20 +0300] "OPTIONS /notification/count HTTP/1.1" 200 5
192.168.1.52 - - [23/May/2017:13:53:20 +0300] "GET /notification/count HTTP/1.1" 200 60
192.168.1.52 - - [23/May/2017:13:53:30 +0300] "OPTIONS /notification/count HTTP/1.1" 200 5
192.168.1.52 - - [23/May/2017:13:53:30 +0300] "GET /notification/count HTTP/1.1" 200 60
192.168.1.52 - - [23/May/2017:13:53:40 +0300] "OPTIONS /notification/count HTTP/1.1" 200 5
192.168.1.52 - - [23/May/2017:13:53:40 +0300] "GET /notification/count HTTP/1.1" 200 60
192.168.1.52 - - [23/May/2017:13:53:50 +0300] "OPTIONS /notification/count HTTP/1.1" 200 5
192.168.1.52 - - [23/May/2017:13:53:50 +0300] "GET /notification/count HTTP/1.1" 200 60
192.168.1.52 - - [23/May/2017:13:54:00 +0300] "OPTIONS /notification/count HTTP/1.1" 200 5
192.168.1.52 - - [23/May/2017:13:54:00 +0300] "GET /notification/count HTTP/1.1" 200 60
192.168.1.52 - - [23/May/2017:13:54:10 +0300] "OPTIONS /notification/count HTTP/1.1" 200 5
192.168.1.52 - - [23/May/2017:13:54:10 +0300] "GET /notification/count HTTP/1.1" 200 60
192.168.1.52 - - [23/May/2017:13:54:20 +0300] "OPTIONS /notification/count HTTP/1.1" 200 5
192.168.1.52 - - [23/May/2017:13:54:20 +0300] "GET /notification/count HTTP/1.1" 200 60
192.168.1.52 - - [23/May/2017:13:54:30 +0300] "OPTIONS /notification/count HTTP/1.1" 200 5
192.168.1.52 - - [23/May/2017:13:54:30 +0300] "GET /notification/count HTTP/1.1" 200 60
192.168.1.52 - - [23/May/2017:13:54:40 +0300] "OPTIONS /notification/count HTTP/1.1" 200 5
192.168.1.52 - - [23/May/2017:13:54:40 +0300] "GET /notification/count HTTP/1.1" 200 60
192.168.1.52 - - [23/May/2017:13:54:50 +0300] "OPTIONS /notification/count HTTP/1.1" 200 5
192.168.1.52 - - [23/May/2017:13:54:50 +0300] "GET /notification/count HTTP/1.1" 200 60
192.168.1.52 - - [23/May/2017:13:55:00 +0300] "OPTIONS /notification/count HTTP/1.1" 200 5
192.168.1.52 - - [23/May/2017:13:55:00 +0300] "GET /notification/count HTTP/1.1" 200 60
192.168.1.52 - - [23/May/2017:13:55:10 +0300] "OPTIONS /notification/count HTTP/1.1" 200 5
192.168.1.52 - - [23/May/2017:13:55:10 +0300] "GET /notification/count HTTP/1.1" 200 60
192.168.1.52 - - [23/May/2017:13:55:20 +0300] "OPTIONS /notification/count HTTP/1.1" 200 5
192.168.1.52 - - [23/May/2017:13:55:20 +0300] "GET /notification/count HTTP/1.1" 200 60
192.168.1.52 - - [23/May/2017:13:55:30 +0300] "OPTIONS /notification/count HTTP/1.1" 200 5
192.168.1.52 - - [23/May/2017:13:55:30 +0300] "GET /notification/count HTTP/1.1" 200 60
192.168.1.52 - - [23/May/2017:13:55:40 +0300] "OPTIONS /notification/count HTTP/1.1" 200 5
192.168.1.52 - - [23/May/2017:13:55:40 +0300] "GET /notification/count HTTP/1.1" 200 60
192.168.1.52 - - [23/May/2017:13:55:50 +0300] "OPTIONS /notification/count HTTP/1.1" 200 5
192.168.1.52 - - [23/May/2017:13:55:50 +0300] "GET /notification/count HTTP/1.1" 200 60
192.168.1.52 - - [23/May/2017:13:56:00 +0300] "OPTIONS /notification/count HTTP/1.1" 200 5
192.168.1.52 - - [23/May/2017:13:56:00 +0300] "GET /notification/count HTTP/1.1" 200 60
192.168.1.52 - - [23/May/2017:13:56:10 +0300] "OPTIONS /notification/count HTTP/1.1" 200 5
192.168.1.52 - - [23/May/2017:13:56:10 +0300] "GET /notification/count HTTP/1.1" 200 60
192.168.1.52 - - [23/May/2017:13:56:20 +0300] "OPTIONS /notification/count HTTP/1.1" 200 5
192.168.1.52 - - [23/May/2017:13:56:20 +0300] "GET /notification/count HTTP/1.1" 200 60
192.168.1.52 - - [23/May/2017:13:56:30 +0300] "OPTIONS /notification/count HTTP/1.1" 200 5
192.168.1.52 - - [23/May/2017:13:56:30 +0300] "GET /notification/count HTTP/1.1" 200 60
192.168.1.52 - - [23/May/2017:13:56:40 +0300] "OPTIONS /notification/count HTTP/1.1" 200 5
192.168.1.52 - - [23/May/2017:13:56:40 +0300] "GET /notification/count HTTP/1.1" 200 60
192.168.1.52 - - [23/May/2017:13:56:50 +0300] "OPTIONS /notification/count HTTP/1.1" 200 5
192.168.1.52 - - [23/May/2017:13:56:50 +0300] "GET /notification/count HTTP/1.1" 200 60
192.168.1.52 - - [23/May/2017:13:57:00 +0300] "OPTIONS /notification/count HTTP/1.1" 200 5
192.168.1.52 - - [23/May/2017:13:57:00 +0300] "GET /notification/count HTTP/1.1" 200 60
192.168.1.52 - - [23/May/2017:13:57:10 +0300] "OPTIONS /notification/count HTTP/1.1" 200 5
192.168.1.52 - - [23/May/2017:13:57:10 +0300] "GET /notification/count HTTP/1.1" 200 60
192.168.1.52 - - [23/May/2017:13:57:20 +0300] "OPTIONS /notification/count HTTP/1.1" 200 5
192.168.1.52 - - [23/May/2017:13:57:20 +0300] "GET /notification/count HTTP/1.1" 200 60
192.168.1.52 - - [23/May/2017:13:57:30 +0300] "OPTIONS /notification/count HTTP/1.1" 200 5
192.168.1.52 - - [23/May/2017:13:57:30 +0300] "GET /notification/count HTTP/1.1" 200 60
192.168.1.52 - - [23/May/2017:13:57:40 +0300] "OPTIONS /notification/count HTTP/1.1" 200 5
192.168.1.52 - - [23/May/2017:13:57:40 +0300] "GET /notification/count HTTP/1.1" 200 60
192.168.1.52 - - [23/May/2017:13:57:50 +0300] "OPTIONS /notification/count HTTP/1.1" 200 5
192.168.1.52 - - [23/May/2017:13:57:50 +0300] "GET /notification/count HTTP/1.1" 200 60
192.168.1.52 - - [23/May/2017:13:58:00 +0300] "OPTIONS /notification/count HTTP/1.1" 200 5
192.168.1.52 - - [23/May/2017:13:58:00 +0300] "GET /notification/count HTTP/1.1" 200 60
192.168.1.52 - - [23/May/2017:13:58:10 +0300] "OPTIONS /notification/count HTTP/1.1" 200 5
192.168.1.52 - - [23/May/2017:13:58:10 +0300] "GET /notification/count HTTP/1.1" 200 60
192.168.1.52 - - [23/May/2017:13:58:20 +0300] "OPTIONS /notification/count HTTP/1.1" 200 5
192.168.1.52 - - [23/May/2017:13:58:20 +0300] "GET /notification/count HTTP/1.1" 200 60
192.168.1.52 - - [23/May/2017:13:58:30 +0300] "OPTIONS /notification/count HTTP/1.1" 200 5
192.168.1.52 - - [23/May/2017:13:58:30 +0300] "GET /notification/count HTTP/1.1" 200 60
192.168.1.52 - - [23/May/2017:13:58:40 +0300] "OPTIONS /notification/count HTTP/1.1" 200 5
192.168.1.52 - - [23/May/2017:13:58:40 +0300] "GET /notification/count HTTP/1.1" 200 60
192.168.1.52 - - [23/May/2017:13:58:50 +0300] "OPTIONS /notification/count HTTP/1.1" 200 5
192.168.1.52 - - [23/May/2017:13:58:50 +0300] "GET /notification/count HTTP/1.1" 200 60
192.168.1.52 - - [23/May/2017:13:59:00 +0300] "OPTIONS /notification/count HTTP/1.1" 200 5
192.168.1.52 - - [23/May/2017:13:59:00 +0300] "GET /notification/count HTTP/1.1" 200 60
192.168.1.52 - - [23/May/2017:13:59:10 +0300] "OPTIONS /notification/count HTTP/1.1" 200 5
192.168.1.52 - - [23/May/2017:13:59:10 +0300] "GET /notification/count HTTP/1.1" 200 60
192.168.1.52 - - [23/May/2017:13:59:20 +0300] "OPTIONS /notification/count HTTP/1.1" 200 5
192.168.1.52 - - [23/May/2017:13:59:20 +0300] "GET /notification/count HTTP/1.1" 200 60
192.168.1.52 - - [23/May/2017:13:59:30 +0300] "OPTIONS /notification/count HTTP/1.1" 200 5
192.168.1.52 - - [23/May/2017:13:59:30 +0300] "GET /notification/count HTTP/1.1" 200 60
192.168.1.52 - - [23/May/2017:13:59:40 +0300] "OPTIONS /notification/count HTTP/1.1" 200 5
192.168.1.52 - - [23/May/2017:13:59:40 +0300] "GET /notification/count HTTP/1.1" 200 60
192.168.1.52 - - [23/May/2017:13:59:50 +0300] "OPTIONS /notification/count HTTP/1.1" 200 5
192.168.1.52 - - [23/May/2017:13:59:50 +0300] "GET /notification/count HTTP/1.1" 200 60
192.168.1.52 - - [23/May/2017:14:00:00 +0300] "OPTIONS /notification/count HTTP/1.1" 200 5
192.168.1.52 - - [23/May/2017:14:00:00 +0300] "GET /notification/count HTTP/1.1" 200 60
192.168.1.52 - - [23/May/2017:14:00:10 +0300] "OPTIONS /notification/count HTTP/1.1" 200 5
192.168.1.52 - - [23/May/2017:14:00:10 +0300] "GET /notification/count HTTP/1.1" 200 60
192.168.1.52 - - [23/May/2017:14:00:20 +0300] "OPTIONS /notification/count HTTP/1.1" 200 5
192.168.1.52 - - [23/May/2017:14:00:20 +0300] "GET /notification/count HTTP/1.1" 200 60
192.168.1.52 - - [23/May/2017:14:00:30 +0300] "OPTIONS /notification/count HTTP/1.1" 200 5
192.168.1.52 - - [23/May/2017:14:00:30 +0300] "GET /notification/count HTTP/1.1" 200 60
192.168.1.52 - - [23/May/2017:14:00:40 +0300] "OPTIONS /notification/count HTTP/1.1" 200 5
192.168.1.52 - - [23/May/2017:14:00:40 +0300] "GET /notification/count HTTP/1.1" 200 60
192.168.1.52 - - [23/May/2017:14:00:50 +0300] "OPTIONS /notification/count HTTP/1.1" 200 5
192.168.1.52 - - [23/May/2017:14:00:50 +0300] "GET /notification/count HTTP/1.1" 200 60
192.168.1.52 - - [23/May/2017:14:01:00 +0300] "OPTIONS /notification/count HTTP/1.1" 200 5
192.168.1.52 - - [23/May/2017:14:01:00 +0300] "GET /notification/count HTTP/1.1" 200 60
192.168.1.52 - - [23/May/2017:14:01:10 +0300] "OPTIONS /notification/count HTTP/1.1" 200 5
192.168.1.52 - - [23/May/2017:14:01:10 +0300] "GET /notification/count HTTP/1.1" 200 60
192.168.1.52 - - [23/May/2017:14:01:20 +0300] "OPTIONS /notification/count HTTP/1.1" 200 5
192.168.1.52 - - [23/May/2017:14:01:20 +0300] "GET /notification/count HTTP/1.1" 200 60
192.168.1.52 - - [23/May/2017:14:01:30 +0300] "OPTIONS /notification/count HTTP/1.1" 200 5
192.168.1.52 - - [23/May/2017:14:01:30 +0300] "GET /notification/count HTTP/1.1" 200 60
192.168.1.52 - - [23/May/2017:14:01:40 +0300] "OPTIONS /notification/count HTTP/1.1" 200 5
192.168.1.52 - - [23/May/2017:14:01:40 +0300] "GET /notification/count HTTP/1.1" 200 60
192.168.1.52 - - [23/May/2017:14:01:50 +0300] "OPTIONS /notification/count HTTP/1.1" 200 5
192.168.1.52 - - [23/May/2017:14:01:50 +0300] "GET /notification/count HTTP/1.1" 200 60
192.168.1.52 - - [23/May/2017:14:02:00 +0300] "OPTIONS /notification/count HTTP/1.1" 200 5
192.168.1.52 - - [23/May/2017:14:02:00 +0300] "GET /notification/count HTTP/1.1" 200 60
192.168.1.52 - - [23/May/2017:14:02:10 +0300] "OPTIONS /notification/count HTTP/1.1" 200 5
192.168.1.52 - - [23/May/2017:14:02:10 +0300] "GET /notification/count HTTP/1.1" 200 60
192.168.1.52 - - [23/May/2017:14:02:20 +0300] "OPTIONS /notification/count HTTP/1.1" 200 5
192.168.1.52 - - [23/May/2017:14:02:20 +0300] "GET /notification/count HTTP/1.1" 200 60
192.168.1.52 - - [23/May/2017:14:02:30 +0300] "OPTIONS /notification/count HTTP/1.1" 200 5
192.168.1.52 - - [23/May/2017:14:02:30 +0300] "GET /notification/count HTTP/1.1" 200 60
192.168.1.52 - - [23/May/2017:14:02:40 +0300] "OPTIONS /notification/count HTTP/1.1" 200 5
192.168.1.52 - - [23/May/2017:14:02:40 +0300] "GET /notification/count HTTP/1.1" 200 60
192.168.1.52 - - [23/May/2017:14:02:50 +0300] "OPTIONS /notification/count HTTP/1.1" 200 5
192.168.1.52 - - [23/May/2017:14:02:50 +0300] "GET /notification/count HTTP/1.1" 200 60
192.168.1.52 - - [23/May/2017:14:03:00 +0300] "OPTIONS /notification/count HTTP/1.1" 200 5
192.168.1.52 - - [23/May/2017:14:03:00 +0300] "GET /notification/count HTTP/1.1" 200 60
192.168.1.52 - - [23/May/2017:14:03:10 +0300] "OPTIONS /notification/count HTTP/1.1" 200 5
192.168.1.52 - - [23/May/2017:14:03:10 +0300] "GET /notification/count HTTP/1.1" 200 60
192.168.1.52 - - [23/May/2017:14:03:20 +0300] "OPTIONS /notification/count HTTP/1.1" 200 5
192.168.1.52 - - [23/May/2017:14:03:20 +0300] "GET /notification/count HTTP/1.1" 200 60
192.168.1.52 - - [23/May/2017:14:03:30 +0300] "OPTIONS /notification/count HTTP/1.1" 200 5
192.168.1.52 - - [23/May/2017:14:03:30 +0300] "GET /notification/count HTTP/1.1" 200 60
192.168.1.52 - - [23/May/2017:14:03:40 +0300] "OPTIONS /notification/count HTTP/1.1" 200 5
192.168.1.52 - - [23/May/2017:14:03:40 +0300] "GET /notification/count HTTP/1.1" 200 60
192.168.1.52 - - [23/May/2017:14:03:50 +0300] "OPTIONS /notification/count HTTP/1.1" 200 5
192.168.1.52 - - [23/May/2017:14:03:50 +0300] "GET /notification/count HTTP/1.1" 200 60
192.168.1.52 - - [23/May/2017:14:04:00 +0300] "OPTIONS /notification/count HTTP/1.1" 200 5
192.168.1.52 - - [23/May/2017:14:04:00 +0300] "GET /notification/count HTTP/1.1" 200 60
192.168.1.52 - - [23/May/2017:14:04:10 +0300] "OPTIONS /notification/count HTTP/1.1" 200 5
192.168.1.52 - - [23/May/2017:14:04:10 +0300] "GET /notification/count HTTP/1.1" 200 60
192.168.1.52 - - [23/May/2017:14:04:20 +0300] "OPTIONS /notification/count HTTP/1.1" 200 5
192.168.1.52 - - [23/May/2017:14:04:20 +0300] "GET /notification/count HTTP/1.1" 200 60
192.168.1.52 - - [23/May/2017:14:04:30 +0300] "OPTIONS /notification/count HTTP/1.1" 200 5
192.168.1.52 - - [23/May/2017:14:04:30 +0300] "GET /notification/count HTTP/1.1" 200 60
192.168.1.52 - - [23/May/2017:14:04:40 +0300] "OPTIONS /notification/count HTTP/1.1" 200 5
192.168.1.52 - - [23/May/2017:14:04:40 +0300] "GET /notification/count HTTP/1.1" 200 60
192.168.1.52 - - [23/May/2017:14:04:50 +0300] "OPTIONS /notification/count HTTP/1.1" 200 5
192.168.1.52 - - [23/May/2017:14:04:50 +0300] "GET /notification/count HTTP/1.1" 200 60
192.168.1.52 - - [23/May/2017:14:05:00 +0300] "OPTIONS /notification/count HTTP/1.1" 200 5
192.168.1.52 - - [23/May/2017:14:05:00 +0300] "GET /notification/count HTTP/1.1" 200 60
192.168.1.52 - - [23/May/2017:14:05:10 +0300] "OPTIONS /notification/count HTTP/1.1" 200 5
192.168.1.52 - - [23/May/2017:14:05:10 +0300] "GET /notification/count HTTP/1.1" 200 60
192.168.1.52 - - [23/May/2017:14:05:20 +0300] "OPTIONS /notification/count HTTP/1.1" 200 5
192.168.1.52 - - [23/May/2017:14:05:20 +0300] "GET /notification/count HTTP/1.1" 200 60
192.168.1.52 - - [23/May/2017:14:05:30 +0300] "OPTIONS /notification/count HTTP/1.1" 200 5
192.168.1.52 - - [23/May/2017:14:05:30 +0300] "GET /notification/count HTTP/1.1" 200 60
192.168.1.52 - - [23/May/2017:14:05:40 +0300] "OPTIONS /notification/count HTTP/1.1" 200 5
192.168.1.52 - - [23/May/2017:14:05:40 +0300] "GET /notification/count HTTP/1.1" 200 60
192.168.1.52 - - [23/May/2017:14:05:50 +0300] "OPTIONS /notification/count HTTP/1.1" 200 5
192.168.1.52 - - [23/May/2017:14:05:50 +0300] "GET /notification/count HTTP/1.1" 200 60
192.168.1.52 - - [23/May/2017:14:06:00 +0300] "OPTIONS /notification/count HTTP/1.1" 200 5
192.168.1.52 - - [23/May/2017:14:06:00 +0300] "GET /notification/count HTTP/1.1" 200 60
192.168.1.52 - - [23/May/2017:14:06:10 +0300] "OPTIONS /notification/count HTTP/1.1" 200 5
192.168.1.52 - - [23/May/2017:14:06:10 +0300] "GET /notification/count HTTP/1.1" 200 60
192.168.1.52 - - [23/May/2017:14:06:20 +0300] "OPTIONS /notification/count HTTP/1.1" 200 5
192.168.1.52 - - [23/May/2017:14:06:20 +0300] "GET /notification/count HTTP/1.1" 200 60
192.168.1.52 - - [23/May/2017:14:06:30 +0300] "OPTIONS /notification/count HTTP/1.1" 200 5
192.168.1.52 - - [23/May/2017:14:06:30 +0300] "GET /notification/count HTTP/1.1" 200 60
192.168.1.52 - - [23/May/2017:14:06:40 +0300] "OPTIONS /notification/count HTTP/1.1" 200 5
192.168.1.52 - - [23/May/2017:14:06:40 +0300] "GET /notification/count HTTP/1.1" 200 60
192.168.1.52 - - [23/May/2017:14:06:50 +0300] "OPTIONS /notification/count HTTP/1.1" 200 5
192.168.1.52 - - [23/May/2017:14:06:50 +0300] "GET /notification/count HTTP/1.1" 200 60
192.168.1.52 - - [23/May/2017:14:07:00 +0300] "OPTIONS /notification/count HTTP/1.1" 200 5
192.168.1.52 - - [23/May/2017:14:07:00 +0300] "GET /notification/count HTTP/1.1" 200 60
192.168.1.52 - - [23/May/2017:14:07:10 +0300] "OPTIONS /notification/count HTTP/1.1" 200 5
192.168.1.52 - - [23/May/2017:14:07:10 +0300] "GET /notification/count HTTP/1.1" 200 60
192.168.1.52 - - [23/May/2017:14:07:20 +0300] "OPTIONS /notification/count HTTP/1.1" 200 5
192.168.1.52 - - [23/May/2017:14:07:20 +0300] "GET /notification/count HTTP/1.1" 200 60
192.168.1.52 - - [23/May/2017:14:07:30 +0300] "OPTIONS /notification/count HTTP/1.1" 200 5
192.168.1.52 - - [23/May/2017:14:07:30 +0300] "GET /notification/count HTTP/1.1" 200 60
192.168.1.52 - - [23/May/2017:14:07:40 +0300] "OPTIONS /notification/count HTTP/1.1" 200 5
192.168.1.52 - - [23/May/2017:14:07:40 +0300] "GET /notification/count HTTP/1.1" 200 60
192.168.1.52 - - [23/May/2017:14:07:50 +0300] "OPTIONS /notification/count HTTP/1.1" 200 5
192.168.1.52 - - [23/May/2017:14:07:50 +0300] "GET /notification/count HTTP/1.1" 200 60
192.168.1.52 - - [23/May/2017:14:08:00 +0300] "OPTIONS /notification/count HTTP/1.1" 200 5
192.168.1.52 - - [23/May/2017:14:08:00 +0300] "GET /notification/count HTTP/1.1" 200 60
192.168.1.52 - - [23/May/2017:14:08:10 +0300] "OPTIONS /notification/count HTTP/1.1" 200 5
192.168.1.52 - - [23/May/2017:14:08:10 +0300] "GET /notification/count HTTP/1.1" 200 60
192.168.1.52 - - [23/May/2017:14:08:20 +0300] "OPTIONS /notification/count HTTP/1.1" 200 5
192.168.1.52 - - [23/May/2017:14:08:20 +0300] "GET /notification/count HTTP/1.1" 200 60
192.168.1.52 - - [23/May/2017:14:08:30 +0300] "OPTIONS /notification/count HTTP/1.1" 200 5
192.168.1.52 - - [23/May/2017:14:08:30 +0300] "GET /notification/count HTTP/1.1" 200 60
192.168.1.52 - - [23/May/2017:14:08:40 +0300] "OPTIONS /notification/count HTTP/1.1" 200 5
192.168.1.52 - - [23/May/2017:14:08:40 +0300] "GET /notification/count HTTP/1.1" 200 60
192.168.1.52 - - [23/May/2017:14:08:50 +0300] "OPTIONS /notification/count HTTP/1.1" 200 5
192.168.1.52 - - [23/May/2017:14:08:50 +0300] "GET /notification/count HTTP/1.1" 200 60
192.168.1.52 - - [23/May/2017:14:08:59 +0300] "OPTIONS /notification/count HTTP/1.1" 200 5
192.168.1.52 - - [23/May/2017:14:08:59 +0300] "GET /notification/count HTTP/1.1" 200 60
192.168.1.52 - - [23/May/2017:14:09:00 +0300] "OPTIONS /version HTTP/1.1" 200 5
192.168.1.52 - - [23/May/2017:14:09:00 +0300] "GET /version HTTP/1.1" 200 123
192.168.1.52 - - [23/May/2017:14:09:00 +0300] "OPTIONS /folder/explore HTTP/1.1" 200 5
192.168.1.52 - - [23/May/2017:14:09:00 +0300] "GET /folder/explore HTTP/1.1" 200 61
192.168.1.52 - - [23/May/2017:14:09:00 +0300] "OPTIONS /job/explore HTTP/1.1" 200 5
192.168.1.52 - - [23/May/2017:14:09:00 +0300] "GET /job/explore HTTP/1.1" 200 61
192.168.1.52 - - [23/May/2017:14:09:00 +0300] "OPTIONS /rule/explore HTTP/1.1" 200 5
192.168.1.52 - - [23/May/2017:14:09:00 +0300] "GET /rule/explore HTTP/1.1" 200 61
192.168.1.52 - - [23/May/2017:14:09:00 +0300] "OPTIONS /localparameter/explore HTTP/1.1" 200 5
192.168.1.52 - - [23/May/2017:14:09:00 +0300] "GET /localparameter/explore HTTP/1.1" 200 61
192.168.1.52 - - [23/May/2017:14:09:00 +0300] "OPTIONS /user/list HTTP/1.1" 200 5
192.168.1.52 - - [23/May/2017:14:09:00 +0300] "GET /user/list HTTP/1.1" 200 366
192.168.1.52 - - [23/May/2017:14:09:08 +0300] "OPTIONS /version HTTP/1.1" 200 5
192.168.1.52 - - [23/May/2017:14:09:08 +0300] "OPTIONS /globalparameter/list HTTP/1.1" 200 5
192.168.1.52 - - [23/May/2017:14:09:08 +0300] "GET /version HTTP/1.1" 200 123
192.168.1.52 - - [23/May/2017:14:09:08 +0300] "GET /globalparameter/list HTTP/1.1" 200 61
192.168.1.52 - - [23/May/2017:14:09:09 +0300] "OPTIONS /operation/today HTTP/1.1" 200 5
192.168.1.52 - - [23/May/2017:14:09:09 +0300] "GET /operation/today HTTP/1.1" 200 61
192.168.1.52 - - [23/May/2017:14:09:09 +0300] "OPTIONS /operation/history?from=20170522&to=20170522&page=1&size=20 HTTP/1.1" 200 5
192.168.1.52 - - [23/May/2017:14:09:09 +0300] "GET /operation/history?from=20170522&to=20170522&page=1&size=20 HTTP/1.1" 200 61
192.168.1.52 - - [23/May/2017:14:09:09 +0300] "OPTIONS /notification/count HTTP/1.1" 200 5
192.168.1.52 - - [23/May/2017:14:09:09 +0300] "GET /notification/count HTTP/1.1" 200 60
192.168.1.52 - - [23/May/2017:14:09:10 +0300] "GET /version HTTP/1.1" 200 123
192.168.1.52 - - [23/May/2017:14:09:10 +0300] "OPTIONS /folder/explore HTTP/1.1" 200 5
192.168.1.52 - - [23/May/2017:14:09:10 +0300] "GET /folder/explore HTTP/1.1" 200 61
192.168.1.52 - - [23/May/2017:14:09:10 +0300] "OPTIONS /job/explore HTTP/1.1" 200 5
192.168.1.52 - - [23/May/2017:14:09:10 +0300] "GET /job/explore HTTP/1.1" 200 61
192.168.1.52 - - [23/May/2017:14:09:10 +0300] "OPTIONS /rule/explore HTTP/1.1" 200 5
192.168.1.52 - - [23/May/2017:14:09:10 +0300] "GET /rule/explore HTTP/1.1" 200 61
192.168.1.52 - - [23/May/2017:14:09:10 +0300] "OPTIONS /localparameter/explore HTTP/1.1" 200 5
192.168.1.52 - - [23/May/2017:14:09:10 +0300] "GET /localparameter/explore HTTP/1.1" 200 61
192.168.1.52 - - [23/May/2017:14:09:10 +0300] "OPTIONS /user/list HTTP/1.1" 200 5
192.168.1.52 - - [23/May/2017:14:09:10 +0300] "GET /user/list HTTP/1.1" 200 366
192.168.1.52 - - [23/May/2017:14:09:16 +0300] "OPTIONS /version HTTP/1.1" 200 5
192.168.1.52 - - [23/May/2017:14:09:16 +0300] "OPTIONS /globalparameter/list HTTP/1.1" 200 5
192.168.1.52 - - [23/May/2017:14:09:16 +0300] "GET /version HTTP/1.1" 200 123
192.168.1.52 - - [23/May/2017:14:09:16 +0300] "GET /globalparameter/list HTTP/1.1" 200 61
192.168.1.52 - - [23/May/2017:14:09:17 +0300] "OPTIONS /operation/today HTTP/1.1" 200 5
192.168.1.52 - - [23/May/2017:14:09:17 +0300] "GET /operation/today HTTP/1.1" 200 61
192.168.1.52 - - [23/May/2017:14:09:19 +0300] "OPTIONS /notification/list?page=0&size=20 HTTP/1.1" 200 5
192.168.1.52 - - [23/May/2017:14:09:19 +0300] "GET /notification/list?page=0&size=20 HTTP/1.1" 200 61
192.168.1.52 - - [23/May/2017:14:09:19 +0300] "OPTIONS /notification/list?page=1&size=20 HTTP/1.1" 200 5
192.168.1.52 - - [23/May/2017:14:09:19 +0300] "GET /notification/list?page=1&size=20 HTTP/1.1" 200 61
192.168.1.52 - - [23/May/2017:14:09:19 +0300] "OPTIONS /connection/list HTTP/1.1" 200 5
192.168.1.52 - - [23/May/2017:14:09:19 +0300] "OPTIONS /notification/count HTTP/1.1" 200 5
192.168.1.52 - - [23/May/2017:14:09:19 +0300] "GET /version HTTP/1.1" 200 123
192.168.1.52 - - [23/May/2017:14:09:19 +0300] "GET /notification/count HTTP/1.1" 200 60
192.168.1.52 - - [23/May/2017:14:09:19 +0300] "GET /connection/list HTTP/1.1" 200 61
192.168.1.52 - - [23/May/2017:14:09:20 +0300] "OPTIONS /user/list HTTP/1.1" 200 5
192.168.1.52 - - [23/May/2017:14:09:20 +0300] "GET /user/list HTTP/1.1" 200 366
192.168.1.52 - - [23/May/2017:14:09:20 +0300] "GET /version HTTP/1.1" 200 123
192.168.1.52 - - [23/May/2017:14:09:20 +0300] "OPTIONS /role/list HTTP/1.1" 200 5
192.168.1.52 - - [23/May/2017:14:09:20 +0300] "GET /version HTTP/1.1" 200 123
192.168.1.52 - - [23/May/2017:14:09:20 +0300] "GET /role/list HTTP/1.1" 200 61
192.168.1.52 - - [23/May/2017:14:09:21 +0300] "OPTIONS /version HTTP/1.1" 200 5
192.168.1.52 - - [23/May/2017:14:09:21 +0300] "GET /user/list HTTP/1.1" 200 366
192.168.1.52 - - [23/May/2017:14:09:21 +0300] "GET /version HTTP/1.1" 200 123
192.168.1.52 - - [23/May/2017:14:09:29 +0300] "OPTIONS /notification/count HTTP/1.1" 200 5
192.168.1.52 - - [23/May/2017:14:09:29 +0300] "GET /notification/count HTTP/1.1" 200 60
192.168.1.52 - - [23/May/2017:14:09:39 +0300] "OPTIONS /notification/count HTTP/1.1" 200 5
192.168.1.52 - - [23/May/2017:14:09:39 +0300] "GET /notification/count HTTP/1.1" 200 60
192.168.1.52 - - [23/May/2017:14:09:49 +0300] "OPTIONS /notification/count HTTP/1.1" 200 5
192.168.1.52 - - [23/May/2017:14:09:49 +0300] "GET /notification/count HTTP/1.1" 200 60
192.168.1.52 - - [23/May/2017:14:09:59 +0300] "OPTIONS /version HTTP/1.1" 200 5
192.168.1.52 - - [23/May/2017:14:09:59 +0300] "GET /version HTTP/1.1" 200 123
192.168.1.52 - - [23/May/2017:14:09:59 +0300] "OPTIONS /folder/explore HTTP/1.1" 200 5
192.168.1.52 - - [23/May/2017:14:09:59 +0300] "GET /folder/explore HTTP/1.1" 200 61
192.168.1.52 - - [23/May/2017:14:09:59 +0300] "OPTIONS /job/explore HTTP/1.1" 200 5
192.168.1.52 - - [23/May/2017:14:09:59 +0300] "OPTIONS /notification/count HTTP/1.1" 200 5
192.168.1.52 - - [23/May/2017:14:09:59 +0300] "GET /job/explore HTTP/1.1" 200 61
192.168.1.52 - - [23/May/2017:14:09:59 +0300] "GET /notification/count HTTP/1.1" 200 60
192.168.1.52 - - [23/May/2017:14:09:59 +0300] "OPTIONS /rule/explore HTTP/1.1" 200 5
192.168.1.52 - - [23/May/2017:14:09:59 +0300] "GET /rule/explore HTTP/1.1" 200 61
192.168.1.52 - - [23/May/2017:14:09:59 +0300] "OPTIONS /localparameter/explore HTTP/1.1" 200 5
192.168.1.52 - - [23/May/2017:14:09:59 +0300] "GET /localparameter/explore HTTP/1.1" 200 61
192.168.1.52 - - [23/May/2017:14:09:59 +0300] "OPTIONS /user/list HTTP/1.1" 200 5
192.168.1.52 - - [23/May/2017:14:09:59 +0300] "GET /user/list HTTP/1.1" 200 366
192.168.1.52 - - [23/May/2017:14:10:00 +0300] "OPTIONS /globalparameter/list HTTP/1.1" 200 5
192.168.1.52 - - [23/May/2017:14:10:00 +0300] "GET /version HTTP/1.1" 200 123
192.168.1.52 - - [23/May/2017:14:10:00 +0300] "GET /globalparameter/list HTTP/1.1" 200 61
192.168.1.52 - - [23/May/2017:14:10:01 +0300] "OPTIONS /operation/today HTTP/1.1" 200 5
192.168.1.52 - - [23/May/2017:14:10:01 +0300] "GET /operation/today HTTP/1.1" 200 61
192.168.1.52 - - [23/May/2017:14:10:02 +0300] "OPTIONS /notification/list?page=0&size=20 HTTP/1.1" 200 5
192.168.1.52 - - [23/May/2017:14:10:02 +0300] "GET /notification/list?page=0&size=20 HTTP/1.1" 200 61
192.168.1.52 - - [23/May/2017:14:10:02 +0300] "OPTIONS /notification/list?page=1&size=20 HTTP/1.1" 200 5
192.168.1.52 - - [23/May/2017:14:10:02 +0300] "GET /notification/list?page=1&size=20 HTTP/1.1" 200 61
192.168.1.52 - - [23/May/2017:14:10:02 +0300] "GET /notification/count HTTP/1.1" 200 60
192.168.1.52 - - [23/May/2017:14:10:02 +0300] "OPTIONS /connection/list HTTP/1.1" 200 5
192.168.1.52 - - [23/May/2017:14:10:02 +0300] "GET /connection/list HTTP/1.1" 200 61
192.168.1.52 - - [23/May/2017:14:10:02 +0300] "GET /version HTTP/1.1" 200 123
192.168.1.52 - - [23/May/2017:14:10:03 +0300] "GET /user/list HTTP/1.1" 200 366
192.168.1.52 - - [23/May/2017:14:10:03 +0300] "GET /version HTTP/1.1" 200 123
192.168.1.52 - - [23/May/2017:14:10:03 +0300] "OPTIONS /role/list HTTP/1.1" 200 5
192.168.1.52 - - [23/May/2017:14:10:03 +0300] "GET /role/list HTTP/1.1" 200 61
192.168.1.52 - - [23/May/2017:14:10:03 +0300] "GET /version HTTP/1.1" 200 123
192.168.1.52 - - [23/May/2017:14:10:04 +0300] "GET /role/list HTTP/1.1" 200 61
192.168.1.52 - - [23/May/2017:14:10:04 +0300] "GET /user/list HTTP/1.1" 200 366
192.168.1.52 - - [23/May/2017:14:10:05 +0300] "OPTIONS /version HTTP/1.1" 200 5
192.168.1.52 - - [23/May/2017:14:10:05 +0300] "GET /connection/list HTTP/1.1" 200 61
192.168.1.52 - - [23/May/2017:14:10:05 +0300] "GET /version HTTP/1.1" 200 123
192.168.1.52 - - [23/May/2017:14:10:09 +0300] "OPTIONS /notification/count HTTP/1.1" 200 5
192.168.1.52 - - [23/May/2017:14:10:09 +0300] "GET /notification/count HTTP/1.1" 200 60
192.168.1.52 - - [23/May/2017:14:10:20 +0300] "OPTIONS /notification/count HTTP/1.1" 200 5
192.168.1.52 - - [23/May/2017:14:10:20 +0300] "GET /notification/count HTTP/1.1" 200 60
192.168.1.52 - - [23/May/2017:14:10:30 +0300] "OPTIONS /notification/count HTTP/1.1" 200 5
192.168.1.52 - - [23/May/2017:14:10:30 +0300] "GET /notification/count HTTP/1.1" 200 60
192.168.1.52 - - [23/May/2017:14:10:40 +0300] "OPTIONS /notification/count HTTP/1.1" 200 5
192.168.1.52 - - [23/May/2017:14:10:40 +0300] "GET /notification/count HTTP/1.1" 200 60
192.168.1.52 - - [23/May/2017:14:10:50 +0300] "OPTIONS /notification/count HTTP/1.1" 200 5
192.168.1.52 - - [23/May/2017:14:10:50 +0300] "GET /notification/count HTTP/1.1" 200 60
192.168.1.52 - - [23/May/2017:14:11:00 +0300] "OPTIONS /notification/count HTTP/1.1" 200 5
192.168.1.52 - - [23/May/2017:14:11:00 +0300] "GET /notification/count HTTP/1.1" 200 60
192.168.1.52 - - [23/May/2017:14:11:10 +0300] "OPTIONS /notification/count HTTP/1.1" 200 5
192.168.1.52 - - [23/May/2017:14:11:10 +0300] "GET /notification/count HTTP/1.1" 200 60
192.168.1.52 - - [23/May/2017:14:11:20 +0300] "OPTIONS /notification/count HTTP/1.1" 200 5
192.168.1.52 - - [23/May/2017:14:11:20 +0300] "GET /notification/count HTTP/1.1" 200 60
192.168.1.52 - - [23/May/2017:14:11:30 +0300] "OPTIONS /notification/count HTTP/1.1" 200 5
192.168.1.52 - - [23/May/2017:14:11:30 +0300] "GET /notification/count HTTP/1.1" 200 60
192.168.1.52 - - [23/May/2017:14:11:40 +0300] "OPTIONS /notification/count HTTP/1.1" 200 5
192.168.1.52 - - [23/May/2017:14:11:40 +0300] "GET /notification/count HTTP/1.1" 200 60
192.168.1.52 - - [23/May/2017:14:11:49 +0300] "OPTIONS /notification/count HTTP/1.1" 200 5
192.168.1.52 - - [23/May/2017:14:11:49 +0300] "GET /notification/count HTTP/1.1" 200 60
192.168.1.52 - - [23/May/2017:14:11:49 +0300] "OPTIONS /version HTTP/1.1" 200 5
192.168.1.52 - - [23/May/2017:14:11:50 +0300] "GET /version HTTP/1.1" 200 123
192.168.1.52 - - [23/May/2017:14:11:50 +0300] "OPTIONS /folder/explore HTTP/1.1" 200 5
192.168.1.52 - - [23/May/2017:14:11:50 +0300] "GET /folder/explore HTTP/1.1" 200 61
192.168.1.52 - - [23/May/2017:14:11:50 +0300] "OPTIONS /job/explore HTTP/1.1" 200 5
192.168.1.52 - - [23/May/2017:14:11:50 +0300] "GET /job/explore HTTP/1.1" 200 61
192.168.1.52 - - [23/May/2017:14:11:50 +0300] "OPTIONS /rule/explore HTTP/1.1" 200 5
192.168.1.52 - - [23/May/2017:14:11:50 +0300] "GET /rule/explore HTTP/1.1" 200 61
192.168.1.52 - - [23/May/2017:14:11:50 +0300] "OPTIONS /localparameter/explore HTTP/1.1" 200 5
192.168.1.52 - - [23/May/2017:14:11:50 +0300] "GET /localparameter/explore HTTP/1.1" 200 61
192.168.1.52 - - [23/May/2017:14:11:50 +0300] "OPTIONS /user/list HTTP/1.1" 200 5
192.168.1.52 - - [23/May/2017:14:11:50 +0300] "GET /user/list HTTP/1.1" 200 366
192.168.1.52 - - [23/May/2017:14:11:52 +0300] "OPTIONS /license HTTP/1.1" 200 5
192.168.1.52 - - [23/May/2017:14:11:52 +0300] "GET /version HTTP/1.1" 200 123
192.168.1.52 - - [23/May/2017:14:11:52 +0300] "GET /notification/count HTTP/1.1" 200 60
192.168.1.52 - - [23/May/2017:14:11:53 +0300] "GET /version HTTP/1.1" 200 123
192.168.1.52 - - [23/May/2017:14:11:53 +0300] "GET /license HTTP/1.1" 200 96
192.168.1.52 - - [23/May/2017:14:11:53 +0300] "GET /folder/explore HTTP/1.1" 200 61
192.168.1.52 - - [23/May/2017:14:11:53 +0300] "GET /job/explore HTTP/1.1" 200 61
192.168.1.52 - - [23/May/2017:14:11:53 +0300] "GET /rule/explore HTTP/1.1" 200 61
192.168.1.52 - - [23/May/2017:14:11:53 +0300] "GET /localparameter/explore HTTP/1.1" 200 61
192.168.1.52 - - [23/May/2017:14:11:53 +0300] "GET /user/list HTTP/1.1" 200 366
192.168.1.52 - - [23/May/2017:14:12:02 +0300] "OPTIONS /notification/count HTTP/1.1" 200 5
192.168.1.52 - - [23/May/2017:14:12:02 +0300] "GET /notification/count HTTP/1.1" 200 60
192.168.1.52 - - [23/May/2017:14:12:05 +0300] "OPTIONS /version HTTP/1.1" 200 5
192.168.1.52 - - [23/May/2017:14:12:05 +0300] "OPTIONS /connection/list HTTP/1.1" 200 5
192.168.1.52 - - [23/May/2017:14:12:05 +0300] "GET /version HTTP/1.1" 200 123
192.168.1.52 - - [23/May/2017:14:12:05 +0300] "GET /connection/list HTTP/1.1" 200 61
192.168.1.52 - - [23/May/2017:14:12:06 +0300] "OPTIONS /role/list HTTP/1.1" 200 5
192.168.1.52 - - [23/May/2017:14:12:06 +0300] "OPTIONS /user/list HTTP/1.1" 200 5
192.168.1.52 - - [23/May/2017:14:12:06 +0300] "GET /role/list HTTP/1.1" 200 61
192.168.1.52 - - [23/May/2017:14:12:06 +0300] "GET /user/list HTTP/1.1" 200 366
192.168.1.52 - - [23/May/2017:14:12:12 +0300] "OPTIONS /notification/count HTTP/1.1" 200 5
192.168.1.52 - - [23/May/2017:14:12:12 +0300] "GET /notification/count HTTP/1.1" 200 60
