192.168.1.201 - - [06/May/2017:19:08:18 +0300] "GET /version HTTP/1.1" 200 123
192.168.1.201 - - [06/May/2017:19:08:18 +0300] "GET /favicon.ico HTTP/1.1" 401 121
192.168.1.201 - - [06/May/2017:19:08:18 +0300] "GET /favicon.ico HTTP/1.1" 401 285
192.168.1.201 - - [06/May/2017:19:08:37 +0300] "OPTIONS /login HTTP/1.1" 200 5
192.168.1.201 - - [06/May/2017:19:08:38 +0300] "POST /login HTTP/1.1" 400 124
192.168.1.201 - - [06/May/2017:19:09:21 +0300] "OPTIONS /license/add HTTP/1.1" 200 5
192.168.1.201 - - [06/May/2017:19:09:22 +0300] "POST /license/add HTTP/1.1" 200 130
192.168.1.201 - - [06/May/2017:19:09:25 +0300] "OPTIONS /user/list HTTP/1.1" 200 5
192.168.1.201 - - [06/May/2017:19:09:25 +0300] "OPTIONS /license HTTP/1.1" 200 5
192.168.1.201 - - [06/May/2017:19:09:26 +0300] "GET /user/list HTTP/1.1" 200 366
192.168.1.201 - - [06/May/2017:19:09:26 +0300] "GET /license HTTP/1.1" 200 96
192.168.1.201 - - [06/May/2017:19:09:36 +0300] "OPTIONS /login HTTP/1.1" 200 5
192.168.1.201 - - [06/May/2017:19:09:36 +0300] "POST /login HTTP/1.1" 200 63
192.168.1.201 - - [06/May/2017:19:09:36 +0300] "OPTIONS /profile HTTP/1.1" 200 5
192.168.1.201 - - [06/May/2017:19:09:36 +0300] "GET /profile HTTP/1.1" 200 364
192.168.1.201 - - [06/May/2017:19:09:37 +0300] "OPTIONS /user/list HTTP/1.1" 200 5
192.168.1.201 - - [06/May/2017:19:09:37 +0300] "OPTIONS /license HTTP/1.1" 200 5
192.168.1.201 - - [06/May/2017:19:09:37 +0300] "OPTIONS /version HTTP/1.1" 200 5
192.168.1.201 - - [06/May/2017:19:09:37 +0300] "OPTIONS /notification/count HTTP/1.1" 200 5
192.168.1.201 - - [06/May/2017:19:09:37 +0300] "OPTIONS /version HTTP/1.1" 200 5
192.168.1.201 - - [06/May/2017:19:09:37 +0300] "GET /user/list HTTP/1.1" 200 366
192.168.1.201 - - [06/May/2017:19:09:37 +0300] "GET /license HTTP/1.1" 200 96
192.168.1.201 - - [06/May/2017:19:09:37 +0300] "GET /version HTTP/1.1" 200 123
192.168.1.201 - - [06/May/2017:19:09:37 +0300] "GET /notification/count HTTP/1.1" 200 60
192.168.1.201 - - [06/May/2017:19:09:37 +0300] "OPTIONS /folder/explore HTTP/1.1" 200 5
192.168.1.201 - - [06/May/2017:19:09:37 +0300] "GET /version HTTP/1.1" 200 123
192.168.1.201 - - [06/May/2017:19:09:37 +0300] "OPTIONS /role/list HTTP/1.1" 200 5
192.168.1.201 - - [06/May/2017:19:09:37 +0300] "OPTIONS /user/list HTTP/1.1" 200 5
192.168.1.201 - - [06/May/2017:19:09:37 +0300] "GET /folder/explore HTTP/1.1" 200 423
192.168.1.201 - - [06/May/2017:19:09:37 +0300] "GET /user/list HTTP/1.1" 200 366
192.168.1.201 - - [06/May/2017:19:09:37 +0300] "GET /role/list HTTP/1.1" 200 61
192.168.1.201 - - [06/May/2017:19:09:37 +0300] "OPTIONS /job/explore HTTP/1.1" 200 5
192.168.1.201 - - [06/May/2017:19:09:37 +0300] "GET /job/explore HTTP/1.1" 200 61
192.168.1.201 - - [06/May/2017:19:09:38 +0300] "OPTIONS /rule/explore HTTP/1.1" 200 5
192.168.1.201 - - [06/May/2017:19:09:38 +0300] "GET /rule/explore HTTP/1.1" 200 61
192.168.1.201 - - [06/May/2017:19:09:38 +0300] "OPTIONS /localparameter/explore HTTP/1.1" 200 5
192.168.1.201 - - [06/May/2017:19:09:38 +0300] "GET /localparameter/explore HTTP/1.1" 200 61
192.168.1.201 - - [06/May/2017:19:09:38 +0300] "OPTIONS /user/list HTTP/1.1" 200 5
192.168.1.201 - - [06/May/2017:19:09:38 +0300] "GET /user/list HTTP/1.1" 200 366
192.168.1.201 - - [06/May/2017:19:09:40 +0300] "OPTIONS /version HTTP/1.1" 200 5
192.168.1.201 - - [06/May/2017:19:09:40 +0300] "OPTIONS /user/list HTTP/1.1" 200 5
192.168.1.201 - - [06/May/2017:19:09:40 +0300] "GET /user/list HTTP/1.1" 200 366
192.168.1.201 - - [06/May/2017:19:09:40 +0300] "GET /version HTTP/1.1" 200 123
192.168.1.201 - - [06/May/2017:19:12:06 +0300] "GET /version HTTP/1.1" 200 123
